<svg xmlns="http://www.w3.org/2000/svg" viewBox="0 0 764.998 420.792">
  <path id="Path_40473" data-name="Path 40473" d="M-53.211,37.775c-34.832,3.929-80.322.991-133-11.526C-357.058-14.344-542.771-83.861-677.381,1.8c-74.756,58.1,14.145,113.493,49.938,128.554s17.981,41.954-13.976,60.911-116.532,5.2-153.32,34.294-35.87,95.981,43.021,115.494c77.264,10.018,140.94-48.938,217.046-50.865,85.8-5.846,160.072,41.931,239.379,68.049,80.627,28.57,162.9,28.834,242.082,13.087Z" transform="translate(818.209 39.012)" fill="#3ac4da"/>
</svg>
