<svg xmlns="http://www.w3.org/2000/svg" viewBox="0 0 965.236 533.322">
  <path id="Path_38880" data-name="Path 38880" d="M908.547-467.236c33.5,2.978,108.167,4.427,182.325,11.358,117.41,10.974,230.29,60.373,152.255,122.137s-2.86,115.951,131.951,79.363,281.357-99.249,387.577-22.039c58.989,52.371-11.162,102.3-39.406,115.874s-14.189,37.816,11.028,54.9,91.954,4.686,120.984,30.911,28.3,86.514-33.948,104.1c-60.969,9.03-111.215-44.111-171.269-45.848-67.7-5.269-126.312,37.8-188.893,61.337-114.116,46.191-232.414,10.321-333.32-43.749C1059.7-24.644,982.5-20.5,908.547-17.147Z" transform="translate(-908.547 467.236)" fill="#e4f8f9" opacity="0.549"/>
</svg>
