<svg class="u-dark-blue" xmlns="http://www.w3.org/2000/svg" viewBox="0 0 755.925 373.702">
  <path id="Intersection_26" data-name="Intersection 26" d="M616.782,305.966c-4.94-30.73-30.988-64.907-84.227-50.684s-83.753-12.1-100.889-23.4c-17.78-11.729-49.856-47.839-68.162-59.209C277.658,120.024,21.382,200.712,0,0H546.869c114.875,0,208,93.125,208,208a207.666,207.666,0,0,1-80.852,164.625C623.538,350.531,620.012,326.051,616.782,305.966Z" transform="translate(0.556 0.5)" fill="#5ccfe1" stroke="rgba(0,0,0,0)" stroke-miterlimit="10" stroke-width="1"/>
</svg>
