<svg class="u-light-yellow u-pill-background" xmlns="http://www.w3.org/2000/svg" viewBox="0 0 832.999 395">
  <path id="Path_40562" data-name="Path 40562" d="M-237.472,125.926A207.924,207.924,0,0,1-354.6,313c-27.074-19.518-30.036-39.6-32.8-56.775-5.471-33.968-34.32-71.749-93.28-56.027s-92.755-13.373-111.732-25.869c-19.689-12.966-55.215-52.882-75.489-65.453-95.071-58.2-378.891,31-402.571-190.877h625.082C-330.552-81.955-237.472,11.119-237.472,125.926Z" transform="translate(1070.471 81.999)" fill="#fbe481"/>
</svg>
