<svg aria-labelledby="d-bangalore-team" role="img" class="s-model-1" xmlns="http://www.w3.org/2000/svg" xmlns:xlink="http://www.w3.org/1999/xlink" width="1175.5" height="416.832" viewBox="0 0 1175.5 416.832">
  <title id="d-bangalore-team">Most talent developers in Bangalore</title>
  <defs>
    <clipPath id="clip-path">
      <rect id="Rectangle_3088" data-name="Rectangle 3088" width="344.494" height="35.687" fill="#cbc0b3"/>
    </clipPath>
    <clipPath id="clip-path-2">
      <rect id="Rectangle_3098" data-name="Rectangle 3098" width="50.158" height="62.286" fill="none"/>
    </clipPath>
    <clipPath id="clip-path-3">
      <rect id="Rectangle_3099" data-name="Rectangle 3099" width="54.148" height="62.286" fill="none"/>
    </clipPath>
    <clipPath id="clip-path-4">
      <rect id="Rectangle_3102" data-name="Rectangle 3102" width="12.007" height="3.784" fill="none"/>
    </clipPath>
    <clipPath id="clip-path-5">
      <rect id="Rectangle_3103" data-name="Rectangle 3103" width="26.34" height="6.958" fill="none"/>
    </clipPath>
  </defs>
  <g id="Group_6218" data-name="Group 6218" transform="translate(-975.5 -820.5)">
    <rect id="Rectangle_3385" data-name="Rectangle 3385" width="1175" height="416" rx="208" transform="translate(976 821)" fill="#7bdae8"/>
    <path id="Intersection_24" data-name="Intersection 24" d="M0,372.626C21.382,171.914,277.658,252.6,363.5,199.955c18.306-11.372,50.382-47.48,68.162-59.209,17.136-11.3,47.651-37.625,100.889-23.4s79.286-19.955,84.227-50.684C620.012,46.575,623.538,22.1,674.017,0a207.666,207.666,0,0,1,80.852,164.625c0,114.875-93.125,208-208,208Z" transform="translate(1730.869 1193.626) rotate(180)" fill="#bcf1f7" stroke="rgba(0,0,0,0)" stroke-miterlimit="10" stroke-width="1"/>
    <g id="Group_4747" data-name="Group 4747" transform="translate(-45.41 182.555)">
      <path id="Path_35548" data-name="Path 35548" d="M401.437,122.493c-30.925-5.068-63.91-8.228-63.91-8.228l-160.4-66.136s4.325-26.1,35.67-21.51S325.089,60.261,325.089,60.261l67.271-2.937s26.781,68.081,9.077,65.169" transform="translate(920.34 840.755)" fill="#d6937a"/>
      <path id="Path_35549" data-name="Path 35549" d="M224.311,161.35c-30.925-5.076-63.912-8.231-63.912-8.231L0,90.953s4.321-26.107,35.666-21.51S147.96,99.116,147.96,99.116l67.278-2.939s26.774,68.08,9.073,65.173" transform="translate(1039.933 811.841)" fill="#e8a389"/>
      <path id="Path_35550" data-name="Path 35550" d="M424.166,255.8c-33.98-12.852-101.731-21.621-128.591-32.422s-108.422-18.6-108.422-18.6l-104.786-42.3s4.327-26.111,35.669-21.514S206.5,162.686,206.5,162.686l35.49-14.859s24.475-23.02,46.324-24.358,134.889-3.344,151.013,2.541,28.749,3.574,48.927,25.1c11.931,15.923,68.218,67.4,110.941,127.7-.384-.077-149.692-.077-149.437,0" transform="translate(984.319 775.971)" fill="#f2b59e"/>
      <path id="Path_35551" data-name="Path 35551" d="M268.466,200.167H237.388l-.134-.043c-.861-.275-86.358-27.508-108.5-18.366l-.684-1.658c9.593-3.961,31-2.072,63.621,5.611,23.2,5.465,44.107,12.066,45.978,12.662h30.8Z" transform="translate(953.462 738.12)" fill="#b98e7f"/>
      <path id="Path_35552" data-name="Path 35552" d="M315.146,110.176H268.4l-.113-.03L178.61,86.383l.459-1.734,89.562,23.734h46.514Z" transform="translate(919.337 801.208)" fill="#b98e7f"/>
      <g id="Group_4726" data-name="Group 4726" transform="translate(1082.36 902.599)" opacity="0.5" style="mix-blend-mode: multiply;isolation: isolate">
        <g id="Group_4725" data-name="Group 4725">
          <g id="Group_4724" data-name="Group 4724" clip-path="url(#clip-path)">
            <path id="Path_35555" data-name="Path 35555" d="M345.719,830.782c0,9.855-77.118,17.844-172.247,17.844S1.225,840.636,1.225,830.782s77.118-17.844,172.247-17.844,172.247,7.989,172.247,17.844" transform="translate(-1.225 -812.938)" fill="#cbc0b3"/>
          </g>
        </g>
      </g>
      <path id="Path_35556" data-name="Path 35556" d="M125.306,40.783s-9.512-10.2-2.571-25.359S138.159,0,138.159,0s10.282,16.209,5.655,27.973S132.2,42.113,125.306,40.783" transform="translate(999.599 642.446)" fill="#4a990d"/>
      <path id="Path_35557" data-name="Path 35557" d="M65.65,82.854s2.841-11.661-3.3-18.227S42.841,52.2,42.841,52.2s-2.1,12.464,1.184,19.421S54.817,83.413,65.65,82.854" transform="translate(1053.069 606.949)" fill="#43840b"/>
      <path id="Path_35558" data-name="Path 35558" d="M87.292,118.89l.332-1.657c-.2-4.887-19.165-24.452-19.986-25.339l-.281.268c.2.216,19.745,21.985,19.935,26.727" transform="translate(1035.813 579.96)" fill="#4a990d"/>
      <path id="Path_35559" data-name="Path 35559" d="M151.319,132.213s3.342-5.752,14.653-9.411,25.707,3.621,25.707,3.621-7.712,8.666-14.139,12.587-20.052-2.092-26.221-6.8" transform="translate(978.273 559.642)" fill="#43840b"/>
      <path id="Path_35560" data-name="Path 35560" d="M131.335,149.616c2.5-7.275,37.008-8.618,37.357-8.63l-.014-.392c-1.434.052-35.486.852-38.071,8.378Z" transform="translate(992.467 546.844)" fill="#4a990d"/>
      <path id="Path_35561" data-name="Path 35561" d="M146.372,228.226c5.593-4.929,13.111-2.353,16.709,4.706s1.8,20.391,1.8,20.391-14.91-5.183-19.795-13.31-2.57-8.389,1.286-11.787" transform="translate(984.441 488.988)" fill="#43840b"/>
      <path id="Path_35562" data-name="Path 35562" d="M152.812,242.467l.333-.2a102.141,102.141,0,0,0-6.254-9.367c-4.751-6.263-8.643-9.467-11.568-9.524a3.965,3.965,0,0,0-3.5,2.132l.291,2.36c.814-1.3,1.77-3.039,3.011-3.039h0c6.719.131,17.578,17.45,17.685,17.635" transform="translate(991.632 490.553)" fill="#4a990d"/>
      <path id="Path_35563" data-name="Path 35563" d="M39.784,227.019s-3.085-7.058-17.48-8.888-21.08,10.456-21.08,10.456,14.91,9.412,22.622,8.889,12.853-5.752,15.938-10.457" transform="translate(1081.136 494.246)" fill="#4a990d"/>
      <path id="Path_35564" data-name="Path 35564" d="M69.547,246.473l.311-1.178c-4.585-4.2-27.888-.469-28.878-.309l.061.387c.24-.039,24.057-2.974,28.506,1.1" transform="translate(1053.89 477.002)" fill="#43840b"/>
      <path id="Path_35565" data-name="Path 35565" d="M40.36,158.76s-2.056-9.411-17.224-15.424S0,145.951,0,145.951s8.74,14.117,19.023,16.47,21.337-3.66,21.337-3.66" transform="translate(1081.975 546.428)" fill="#3a6d09"/>
      <path id="Path_35566" data-name="Path 35566" d="M57.83,170.51l-.114-2.061c-15.566-17.363-33.914-14.566-34.1-14.543l.045.389A42.438,42.438,0,0,1,57.83,170.51" transform="translate(1065.79 537.914)" fill="#4a990d"/>
      <path id="Path_35567" data-name="Path 35567" d="M130.693,42.294c-2.275,7.614-8.767,30.455-8.99,43.939-.256,15.483,1.285,49.973,1.285,49.973l.257,17.254h-6.426s3.195-25.023,3.6-34.226-.257-27.291,0-33c.237-5.265,5.088-32.069,9.848-43.846Z" transform="translate(1001.916 613.686)" fill="#43840b"/>
      <path id="Path_35568" data-name="Path 35568" d="M65.784,404.81H102.66L99.2,372.9H69.243Z" transform="translate(1036.891 388.881)" fill="#fff"/>
      <path id="Path_35569" data-name="Path 35569" d="M768.073,589.884s-23.221-1.147-26.463.618-2.943,9.261-2.943,9.261l29.406-6.148Z" transform="translate(575.756 241.583)" fill="#122f41"/>
      <path id="Path_35570" data-name="Path 35570" d="M830.947,589.884s23.22-1.147,26.463.618,2.943,9.261,2.943,9.261l-29.406-6.148Z" transform="translate(512.509 241.583)" fill="#122f41"/>
      <path id="Path_35571" data-name="Path 35571" d="M759.369,601c-3.3-4.557-25.334-5.879-25.334-5.879H721.927s-22.033,1.323-25.334,5.879c-2.507,3.462-16.162,72.958-16.162,72.958h3.614s15.9-65.166,19.658-68.841c3.313-2.807,24.336-4.263,24.336-4.263v0c1.589-.032,20.909,1.458,24.22,4.265,3.759,3.674,19.659,68.841,19.659,68.841h3.614s-13.654-69.5-16.162-72.958" transform="translate(615.662 237.774)" fill="#fff"/>
      <path id="Path_35572" data-name="Path 35572" d="M694.534,333.506v0c-.534-.008-2.8-.008-3.33,0v0c-25.505.411-48.019,9.894-62.009,24.311,4.533,14.33,13.362,40.05,21.05,49.492,8.87,10.893,41.088,9.843,42.623,9.786,1.536.057,33.754,1.107,42.623-9.786,7.688-9.443,16.517-35.162,21.05-49.492-13.989-14.417-36.5-23.9-62.008-24.311" transform="translate(650.775 415.674)" fill="#0181a3"/>
      <path id="Path_35573" data-name="Path 35573" d="M754.4,517.635l34.649-.014s12.686,6.941,7.166-27.939l-49.92,1.3c-.03.855,3.909,1.487,3.829,1.834-7.289,31.076,4.277,24.817,4.277,24.817" transform="translate(570.522 309.469)" fill="#041d4b"/>
      <path id="Path_35574" data-name="Path 35574" d="M711.794,227.926c-21.5.582-40.678,27.156-46.032,71.148-.506,4.149,3.329,7.574,3.217,11.033l24.356.517a183.638,183.638,0,0,0,8.351-39.3c.845-10.521,10.108-43.4,10.108-43.4" transform="translate(625.745 487.46)" fill="#f8cf27"/>
      <path id="Path_35575" data-name="Path 35575" d="M883.618,239.82s19.886,7.905,24.237,62.027c.484,6.022.971,11.427,1.444,16.253l-17.7.095c-4.508-13.907-8.741-29.025-9.524-38.783-.845-10.521,1.545-39.592,1.545-39.592" transform="translate(477.596 479.372)" fill="#f8cf27"/>
      <path id="Path_35576" data-name="Path 35576" d="M757.95,226.079c-6.453.408-13.722,15.816-15.706,22.669-.73,5.116-6.522,18.855-7.844,35.266-1.092,13.551-2.358,29.256,0,41.676l59.1-.029c3.654-28.095-4.359-78.191-8.336-91.186-2.093-6.84-12.179-7.516-15.6-8.4-4.139-1.769-6.13-.346-11.614,0" transform="translate(579.59 489.306)" fill="#f8cf27"/>
      <path id="Path_35577" data-name="Path 35577" d="M705.214,443.7c-4.848.515-8.523,3.418-8.207,6.482a3.972,3.972,0,0,0,1.183,2.382c.669.683,12.916-.826,14.2-.044a4.872,4.872,0,0,0,2.178-4.2c-.316-3.066-4.5-5.133-9.351-4.616" transform="translate(604.315 340.792)" fill="#e8a389"/>
      <path id="Path_35578" data-name="Path 35578" d="M747.838,534.742c.444-15.792-18.025-14.081-16.092-.255,1.122,29.343-4.88,23.492.023,63.639h10.62c.982-14.858,2.662-31.38,5.449-63.384" transform="translate(581.818 286.474)" fill="#034e76"/>
      <path id="Path_35579" data-name="Path 35579" d="M736.43,762.694h9.831q.171-2.743.387-6h-10.62c.068.563.139,1.132.211,1.711Z" transform="translate(577.56 127.908)" fill="#f2b59e"/>
      <path id="Path_35580" data-name="Path 35580" d="M737.737,785.149h8.956s-.213.755.444-9.7h-9.831Z" transform="translate(576.684 115.155)" fill="#fff"/>
      <path id="Path_35581" data-name="Path 35581" d="M742.355,820.581H727.089v-4.207l3.646-10.608h8.956l2.664,10.608Z" transform="translate(583.686 94.539)" fill="#122f41"/>
      <path id="Path_35582" data-name="Path 35582" d="M886.832,820.581H902.1v-4.207l-3.646-10.608H889.5l-2.664,10.608Z" transform="translate(474.211 94.539)" fill="#122f41"/>
      <path id="Path_35583" data-name="Path 35583" d="M875.322,534.742c-.444-15.792,18.025-14.081,16.093-.255-1.123,29.343,4.88,23.492-.023,63.639h-10.62c-.982-14.858-2.663-31.38-5.45-63.384" transform="translate(482.104 286.474)" fill="#034e76"/>
      <path id="Path_35584" data-name="Path 35584" d="M902.875,762.694h-9.831q-.172-2.743-.387-6h10.62c-.069.563-.139,1.132-.212,1.711Z" transform="translate(470.219 127.908)" fill="#f2b59e"/>
      <path id="Path_35585" data-name="Path 35585" d="M903.286,785.149H894.33s.212.755-.444-9.7h9.831Z" transform="translate(469.376 115.155)" fill="#fff"/>
      <path id="Path_35586" data-name="Path 35586" d="M767.775,262.185s-16.913-8.215-11.332-20.461,48.641-7.38,48.375,3.432-21,18.476-21,18.476Z" transform="translate(564.343 482.975)" fill="#ef5c00"/>
      <path id="Path_35587" data-name="Path 35587" d="M790.715,151.946s-1.452-8.186,1.123-13.245c3.242-6.364,12.586-9.216,20.378-3.1,5.509,4.324,2.463,17.156,2.463,17.156l-16.257-7.028Z" transform="translate(540.361 552.542)" fill="#041d4b"/>
      <path id="Path_35588" data-name="Path 35588" d="M823.758,241.1l-5.807,5.615-5.807-5.615,1.021-12.72h9.571Z" transform="translate(525.395 487.15)" fill="#f2b59e"/>
      <path id="Path_35590" data-name="Path 35590" d="M791.741,188.784a1.769,1.769,0,0,0-2.438.538c-1.063,1.441-.355,6.847,2.3,6.847s.135-7.385.135-7.385" transform="translate(541.374 514.266)" fill="#d6937a"/>
      <path id="Path_35591" data-name="Path 35591" d="M861.016,188.784a1.769,1.769,0,0,1,2.438.538c1.063,1.441.355,6.847-2.3,6.847s-.135-7.385-.135-7.385" transform="translate(492.644 514.266)" fill="#d6937a"/>
      <path id="Path_35589" data-name="Path 35589" d="M816.9,163.365c0-6.064-4.817-10.034-10.759-10.034s-10.762,3.97-10.762,10.034c0,0-.467,7.737-.467,8.113,0,5.762,6.937,13.073,11.229,13.073,4.954,0,11.229-8.708,11.229-13.073,0-.375-.469-8.113-.469-8.113" transform="translate(537.204 538.183)" fill="#e8a389"/>
      <path id="Path_35592" data-name="Path 35592" d="M825.291,94.607c.171,5.227-2.935,8.6-7.609,8.755s-6.919-3.182-7.09-8.409,2.166-9.232,6.84-9.391,7.688,3.82,7.858,9.044" transform="translate(526.465 584.268)" fill="#041d4b"/>
      <path id="Rectangle_3089" data-name="Rectangle 3089" d="M5.53,0H93.055a5.531,5.531,0,0,1,5.531,5.531v49.44A5.532,5.532,0,0,1,93.054,60.5H5.531A5.531,5.531,0,0,1,0,54.972V5.53A5.53,5.53,0,0,1,5.53,0Z" transform="translate(1297.692 714.416)" fill="#122f41"/>
      <path id="Path_35681" data-name="Path 35681" d="M6.034,0H92.55a6.035,6.035,0,0,1,6.035,6.035V54.467A6.036,6.036,0,0,1,92.549,60.5H6.035A6.035,6.035,0,0,1,0,54.468V6.034A6.034,6.034,0,0,1,6.034,0Z" transform="translate(1300.707 714.416)" fill="#385363"/>
      <rect id="Rectangle_3091" data-name="Rectangle 3091" width="28.124" height="3.982" transform="translate(1325.942 789.401)" fill="#1f293d"/>
      <rect id="Rectangle_3092" data-name="Rectangle 3092" width="21.88" height="49.675" transform="translate(1339.448 744.668)" fill="#122f41"/>
      <path id="Path_35593" data-name="Path 35593" d="M703.534,309.54a1.175,1.175,0,0,0,1.165-1.185v-.838a1.175,1.175,0,0,0-1.165-1.185H695.1v3.209Z" transform="translate(605.611 434.145)" fill="#122f41"/>
      <path id="Path_35594" data-name="Path 35594" d="M703.534,326a1.176,1.176,0,0,0,1.165-1.185v-.839a1.175,1.175,0,0,0-1.165-1.184H695.1V326Z" transform="translate(605.611 422.955)" fill="#122f41"/>
      <path id="Path_35595" data-name="Path 35595" d="M703.534,342.452a1.176,1.176,0,0,0,1.165-1.184v-.839a1.175,1.175,0,0,0-1.165-1.185H695.1v3.209Z" transform="translate(605.611 411.766)" fill="#122f41"/>
      <path id="Path_35596" data-name="Path 35596" d="M703.534,358.909a1.176,1.176,0,0,0,1.165-1.185v-.838a1.175,1.175,0,0,0-1.165-1.185H695.1v3.209Z" transform="translate(605.611 400.576)" fill="#122f41"/>
      <path id="Path_35597" data-name="Path 35597" d="M979.032,309.54a1.175,1.175,0,0,1-1.165-1.185v-.838a1.175,1.175,0,0,1,1.165-1.185h8.438v3.209Z" transform="translate(411.822 434.145)" fill="#122f41"/>
      <path id="Path_35598" data-name="Path 35598" d="M979.032,326a1.176,1.176,0,0,1-1.165-1.185v-.839a1.175,1.175,0,0,1,1.165-1.184h8.438V326Z" transform="translate(411.822 422.955)" fill="#122f41"/>
      <path id="Path_35599" data-name="Path 35599" d="M979.032,342.452a1.175,1.175,0,0,1-1.165-1.184v-.839a1.175,1.175,0,0,1,1.165-1.185h8.438v3.209Z" transform="translate(411.822 411.766)" fill="#122f41"/>
      <path id="Path_35600" data-name="Path 35600" d="M979.032,358.909a1.176,1.176,0,0,1-1.165-1.185v-.838a1.175,1.175,0,0,1,1.165-1.185h8.438v3.209Z" transform="translate(411.822 400.576)" fill="#122f41"/>
      <rect id="Rectangle_3093" data-name="Rectangle 3093" width="10.524" height="4.9" transform="translate(1368.86 766.131)" fill="#122f41"/>
      <rect id="Rectangle_3094" data-name="Rectangle 3094" width="338.5" height="5.074" transform="translate(1094.689 793.039)" fill="#122f41"/>
      <path id="Path_35601" data-name="Path 35601" d="M1065.585,603.282h-3.973l-18.6-124.772h7.692Z" transform="translate(367.174 317.067)" fill="#122f41"/>
      <path id="Path_35602" data-name="Path 35602" d="M48.908,603.282h3.973l18.6-124.772H63.784Z" transform="translate(1048.457 317.067)" fill="#122f41"/>
      <path id="Path_35603" data-name="Path 35603" d="M540.008,310.413s-16.317-22.252-23.792-31.362-20.556-21.5-20.556-21.5,12.051,2.646,25,12.862,19.352,40,19.352,40" transform="translate(742.289 467.317)" fill="#43840b"/>
      <path id="Path_35604" data-name="Path 35604" d="M505.3,366.905s-15.182-5.95-25.362-10.23-27.989,1.155-27.989,1.155,13.129-11.393,28.359-8.626,24.991,17.7,24.991,17.7" transform="translate(772.245 405.287)" fill="#43840b"/>
      <path id="Path_35605" data-name="Path 35605" d="M643.19,299.557s6.956-29.424,13.775-38.232S684.1,244.132,684.1,244.132s-12.356,9.656-20.457,23.081-20.457,32.344-20.457,32.344" transform="translate(641.183 476.44)" fill="#43840b"/>
      <path id="Path_35606" data-name="Path 35606" d="M622.963,244.771s-6.131-30.39-6.311-44.836.925-36.372.925-36.372a208.36,208.36,0,0,1,10.4,33.32c4.512,19.764-5.017,47.888-5.017,47.888" transform="translate(659.384 531.226)" fill="#3a6d09"/>
      <path id="Path_35607" data-name="Path 35607" d="M649.754,389.837c-.174-9,14.136-22.053,14.136-22.053l9.281-.415S658.65,381,649.754,389.837" transform="translate(636.686 392.642)" fill="#37600b"/>
      <path id="Path_35608" data-name="Path 35608" d="M719.392,392.745c-11.692-12.526-24.711-24.961-24.711-24.961l9.281-.415a35.821,35.821,0,0,1,15.43,25.377" transform="translate(605.896 392.642)" fill="#43840b"/>
      <path id="Path_35609" data-name="Path 35609" d="M615.02,405.057V403.11H572.873v1.947a21.465,21.465,0,0,0,11.687,19.188h18.773a21.464,21.464,0,0,0,11.687-19.188" transform="translate(689.373 368.338)" fill="#fff"/>
      <rect id="Rectangle_3095" data-name="Rectangle 3095" width="23.298" height="52.895" transform="translate(1155.084 740.82)" fill="#122f41"/>
      <rect id="Rectangle_3096" data-name="Rectangle 3096" width="37.131" height="3.784" transform="translate(1148.167 789.932)" fill="#1f293d"/>
      <path id="Rectangle_3097" data-name="Rectangle 3097" d="M6.405,0H85.562a6.406,6.406,0,0,1,6.406,6.406V55.88a6.406,6.406,0,0,1-6.406,6.406H6.408A6.408,6.408,0,0,1,0,55.878V6.405A6.405,6.405,0,0,1,6.405,0Z" transform="translate(1120.75 713.295)" fill="#1f293d"/>
      <g id="Group_4729" data-name="Group 4729" transform="translate(1146.628 713.295)" opacity="0.3">
        <g id="Group_4728" data-name="Group 4728">
          <g id="Group_4727" data-name="Group 4727" clip-path="url(#clip-path-2)">
            <path id="Path_35610" data-name="Path 35610" d="M205.458,221.391l33.15,62.286h17.007L211.8,221.391Z" transform="translate(-205.458 -221.391)" fill="#fff"/>
          </g>
        </g>
      </g>
      <g id="Group_4732" data-name="Group 4732" transform="translate(1158.57 713.295)" opacity="0.2">
        <g id="Group_4731" data-name="Group 4731">
          <g id="Group_4730" data-name="Group 4730" clip-path="url(#clip-path-3)">
            <path id="Path_35611" data-name="Path 35611" d="M297.554,281.627V262.67l-21.648-41.279h-32.5l43.5,62.286h8.629a2.033,2.033,0,0,0,2.016-2.05" transform="translate(-243.406 -221.391)" fill="#fff"/>
          </g>
        </g>
      </g>
      <rect id="Rectangle_3100" data-name="Rectangle 3100" width="81.383" height="52.703" transform="translate(1125.963 718.104)" fill="#122f41"/>
      <rect id="Rectangle_3101" data-name="Rectangle 3101" width="81.383" height="3.929" transform="translate(1125.963 718.068)" fill="#c7c9c9"/>
      <path id="Path_35612" data-name="Path 35612" d="M145.742,240.4a.947.947,0,1,1-.947-.963.955.955,0,0,1,.947.963" transform="translate(983.393 479.633)" fill="#4e5eaf"/>
      <path id="Path_35613" data-name="Path 35613" d="M155.478,240.4a.947.947,0,1,1-.947-.963.955.955,0,0,1,.947.963" transform="translate(976.721 479.633)" fill="#7dc93a"/>
      <path id="Path_35614" data-name="Path 35614" d="M165.215,240.4a.947.947,0,1,1-.947-.963.955.955,0,0,1,.947.963" transform="translate(970.048 479.633)" fill="#fff"/>
      <path id="Path_35615" data-name="Path 35615" d="M175.427,258.881a1.161,1.161,0,0,1-1.152,1.171h-6.388a1.171,1.171,0,0,1,0-2.342h6.388a1.161,1.161,0,0,1,1.152,1.171" transform="translate(967.707 467.207)" fill="#fff"/>
      <path id="Path_35616" data-name="Path 35616" d="M186.667,268.795a1.161,1.161,0,0,1-1.151,1.171h-6.388a1.171,1.171,0,0,1,0-2.342h6.388a1.161,1.161,0,0,1,1.151,1.171" transform="translate(960.004 460.466)" fill="#67c979"/>
      <path id="Path_35617" data-name="Path 35617" d="M219.2,278.709a1.161,1.161,0,0,1-1.151,1.171h-22.73a1.171,1.171,0,0,1,0-2.342h22.73a1.161,1.161,0,0,1,1.151,1.171" transform="translate(948.911 453.724)" fill="#fff"/>
      <path id="Path_35618" data-name="Path 35618" d="M231.08,288.623a1.161,1.161,0,0,1-1.151,1.171H195.314a1.171,1.171,0,0,1,0-2.342h34.615a1.161,1.161,0,0,1,1.151,1.171" transform="translate(948.911 446.983)" fill="#00afcc"/>
      <path id="Path_35619" data-name="Path 35619" d="M239.993,298.537a1.161,1.161,0,0,1-1.151,1.171H195.314a1.171,1.171,0,0,1,0-2.342h43.528a1.161,1.161,0,0,1,1.151,1.171" transform="translate(948.911 440.242)" fill="#f4ae65"/>
      <path id="Path_35620" data-name="Path 35620" d="M194.1,308.452a1.161,1.161,0,0,1-1.151,1.171H179.128a1.171,1.171,0,0,1,0-2.342h13.816a1.161,1.161,0,0,1,1.151,1.171" transform="translate(960.004 433.5)" fill="#67c979"/>
      <path id="Path_35621" data-name="Path 35621" d="M202.854,318.366a1.161,1.161,0,0,1-1.152,1.171h-6.387a1.171,1.171,0,0,1,0-2.341H201.7a1.161,1.161,0,0,1,1.152,1.171" transform="translate(948.911 426.758)" fill="#c7c9c9"/>
      <path id="Path_35622" data-name="Path 35622" d="M232.474,318.366a1.161,1.161,0,0,1-1.151,1.171h-6.388a1.171,1.171,0,0,1,0-2.341h6.388a1.161,1.161,0,0,1,1.151,1.171" transform="translate(928.612 426.758)" fill="#fff"/>
      <path id="Path_35623" data-name="Path 35623" d="M208.8,328.28a1.161,1.161,0,0,1-1.152,1.171h-12.33a1.171,1.171,0,0,1,0-2.342h12.33a1.161,1.161,0,0,1,1.152,1.171" transform="translate(948.911 420.017)" fill="#00afcc"/>
      <path id="Path_35624" data-name="Path 35624" d="M214.738,338.194a1.161,1.161,0,0,1-1.152,1.17H195.314a1.171,1.171,0,0,1,0-2.341h18.273a1.161,1.161,0,0,1,1.152,1.171" transform="translate(948.911 413.276)" fill="#fff"/>
      <path id="Path_35625" data-name="Path 35625" d="M202.854,348.107a1.161,1.161,0,0,1-1.152,1.171h-6.387a1.171,1.171,0,0,1,0-2.342H201.7a1.162,1.162,0,0,1,1.152,1.171" transform="translate(948.911 406.535)" fill="#c7c9c9"/>
      <path id="Path_35626" data-name="Path 35626" d="M202.854,358.023a1.161,1.161,0,0,1-1.152,1.171h-6.387a1.171,1.171,0,0,1,0-2.341H201.7a1.161,1.161,0,0,1,1.152,1.171" transform="translate(948.911 399.792)" fill="#7dc93a"/>
      <path id="Path_35627" data-name="Path 35627" d="M252.53,358.023a1.161,1.161,0,0,1-1.151,1.171H224.935a1.171,1.171,0,0,1,0-2.341h26.444a1.161,1.161,0,0,1,1.151,1.171" transform="translate(928.612 399.792)" fill="#00afcc"/>
      <path id="Path_35628" data-name="Path 35628" d="M327.2,358.023a1.161,1.161,0,0,1-1.152,1.171h-7.874a1.171,1.171,0,0,1,0-2.341h7.874a1.161,1.161,0,0,1,1.152,1.171" transform="translate(864.712 399.792)" fill="#ef5c00"/>
      <path id="Path_35629" data-name="Path 35629" d="M186.667,367.937a1.161,1.161,0,0,1-1.151,1.172h-6.388a1.171,1.171,0,0,1,0-2.342h6.388a1.161,1.161,0,0,1,1.151,1.17" transform="translate(960.004 393.05)" fill="#67c979"/>
      <path id="Path_35630" data-name="Path 35630" d="M202.854,377.851a1.161,1.161,0,0,1-1.152,1.171h-6.387a1.171,1.171,0,0,1,0-2.341H201.7a1.161,1.161,0,0,1,1.152,1.171" transform="translate(948.911 386.309)" fill="#00afcc"/>
      <path id="Path_35631" data-name="Path 35631" d="M219.2,387.766a1.161,1.161,0,0,1-1.151,1.171h-22.73a1.171,1.171,0,0,1,0-2.341h22.73a1.161,1.161,0,0,1,1.151,1.171" transform="translate(948.911 379.568)" fill="#c7c9c9"/>
      <g id="Group_4735" data-name="Group 4735" transform="translate(1160.984 789.932)" opacity="0.2">
        <g id="Group_4734" data-name="Group 4734">
          <g id="Group_4733" data-name="Group 4733" clip-path="url(#clip-path-4)">
            <path id="Path_35632" data-name="Path 35632" d="M263.084,464.654h-9.537l-2.47-3.784h9.537Z" transform="translate(-251.077 -460.87)" fill="#fff"/>
          </g>
        </g>
      </g>
      <path id="Path_35633" data-name="Path 35633" d="M340.977,115.214c-6.281-.1-13.826,6.221-13.529,13.6s1.9,19.989,6.655,20.5c2.107.226,9.394-2.258,9.394-2.258l.392,8.794,13.646-3.281-5.04-11.518s9.188-25.509-11.518-25.831" transform="translate(857.573 564.103)" fill="#e8a389"/>
      <path id="Path_35634" data-name="Path 35634" d="M315.481,118.694s-7.568-4.522-6.67-6.73c.55-1.354,5.108,1.315,5.762.01.527-1.053-4.226-2.16-3.217-2.746,4.806-2.789,23.169-3,24.67,1.243s-20.545,8.223-20.545,8.223" transform="translate(870.391 569.553)" fill="#041d4b"/>
      <path id="Path_35635" data-name="Path 35635" d="M414.777,402.416s-3.255,35.387-4.457,68.053a332.83,332.83,0,0,1-.206,53.511L396.523,524c-.116-7.151-1.63-28.853-4.609-52.143-4.379-34.209-10.734-71.848-10.734-71.848s28.017-11.794,33.6,2.4" transform="translate(820.745 373.569)" fill="#041d4b"/>
      <path id="Path_35636" data-name="Path 35636" d="M435.111,826.662l9.177-2.546-.215-9.868h-9.715Z" transform="translate(784.3 88.77)" fill="#fff"/>
      <path id="Path_35637" data-name="Path 35637" d="M443.115,802.675H433.4l-.441-5.448h10.156Z" transform="translate(785.259 100.343)" fill="#f2b59e"/>
      <path id="Path_35638" data-name="Path 35638" d="M285.891,586.3a331.73,331.73,0,0,0,13.962,51.593l13.124-3.593c-1.727-6.934-5.848-28.282-8.961-51.554-4.573-34.182-29.046-24.922-18.124,3.554" transform="translate(887.953 261.121)" fill="#041d4b"/>
      <path id="Path_35639" data-name="Path 35639" d="M360.252,820.278l-9.513-.017-2.33-9.582,9.378-2.583Z" transform="translate(843.203 92.953)" fill="#fff"/>
      <path id="Path_35640" data-name="Path 35640" d="M345.361,799.258l9.378-2.583-.976-5.375-9.8,2.7Z" transform="translate(846.251 104.374)" fill="#f2b59e"/>
      <path id="Path_35641" data-name="Path 35641" d="M336.189,230.066c6.228.393,14.275-1.695,18.291,10.264,3.078,21.564,8.344,113.977,8.344,113.977l-59.512.45s5.4-89.062,12.846-121.04c2.3-3.793,14.738-3.984,20.031-3.65" transform="translate(874.109 486.081)" fill="#fff"/>
      <path id="Path_35642" data-name="Path 35642" d="M287.443,257.5s-22.238,4.745-26.437,56.98c-2.782,34.607,20.813,48.111,20.813,48.111l16.866-3.639s-11.444-44.64-9.718-66.124c.816-10.154-1.524-35.327-1.524-35.327" transform="translate(903.258 467.347)" fill="#fff"/>
      <path id="Path_35643" data-name="Path 35643" d="M358.361,210.621l43.291-10.789s8.792,27.89-13,29.194-30.3-18.4-30.3-18.4" transform="translate(836.383 506.564)" fill="#fff"/>
      <path id="Path_35644" data-name="Path 35644" d="M467.767,271.2s28.045,44.869,25.309,58.434-25.309,26.087-25.309,26.087Z" transform="translate(761.404 458.032)" fill="#fff"/>
      <g id="Group_4738" data-name="Group 4738" transform="translate(1205.654 731.583)" opacity="0.2">
        <g id="Group_4737" data-name="Group 4737">
          <g id="Group_4736" data-name="Group 4736" clip-path="url(#clip-path-5)">
            <path id="Path_35645" data-name="Path 35645" d="M393.031,278.54a30.953,30.953,0,0,0,26.34,2.3s-11.544,11.871-26.34-2.3" transform="translate(-393.031 -278.54)" fill="#151c28"/>
          </g>
        </g>
      </g>
      <path id="Path_35646" data-name="Path 35646" d="M330.467,141.932c-.468-2.89-.6-2.991,2.759-3.814s5.327,3.351,7.109,2.705c1.042-.377,2.892-9.949-1.441-15.095-2.465-2.926-8.726-2.973-8.726-2.973.283-10.668,19.182-12.4,24.368-5.345,5.522,7.518.631,22.171-.172,22.246s-4.816-3.624-5.385-4.558,2.341-4.351.088-6.99c-1.831-2.146-4.418-2.365-5.3,1.043a15.588,15.588,0,0,1-.536,1.724c.527,4.392,2.87,11.368,2.351,13.5-.881,3.6-12.739,4.477-13.755,4.517s-.908-4.2-1.357-6.958" transform="translate(855.704 565.491)" fill="#041d4b"/>
      <path id="Path_35647" data-name="Path 35647" d="M427.871,831.889a5.3,5.3,0,0,1,1.463-2.447,5.5,5.5,0,0,0,1.377-2.564c.549-1.523,2.635-1.982,3.933-2.037v0l.047,0,.047,0v0c1.3.055,3.383.514,3.933,2.037a5.5,5.5,0,0,0,1.377,2.564,5.305,5.305,0,0,1,1.464,2.447c.118.864.926,10.817-.965,10.976-.909.078-3.394-.081-5.808-.031v0h-.094v0c-2.414-.05-4.9.108-5.807.031-1.892-.159-1.084-10.112-.965-10.976" transform="translate(788.932 81.57)" fill="#122f41"/>
      <path id="Path_35648" data-name="Path 35648" d="M350.4,833.1a5.339,5.339,0,0,1,.85-2.73,5.543,5.543,0,0,0,.739-2.824c.178-1.612,2.1-2.561,3.346-2.928v0l.046-.009.045-.013v0c1.273-.26,3.408-.317,4.3,1.03.981,1.488,1.285,1.769,1.935,2.159a5.239,5.239,0,0,1,1.992,2.023c.317.811,3.424,10.284,1.624,10.9-.864.294-3.315.74-5.649,1.371h0l-.045.011-.045.012h0c-2.357.534-4.734,1.287-5.635,1.432-1.874.3-3.413-9.561-3.5-10.429" transform="translate(841.846 81.836)" fill="#122f41"/>
      <path id="Path_35649" data-name="Path 35649" d="M363.021,658.635s-19.956-.985-22.741.531-2.53,7.959-2.53,7.959l25.271-5.284Z" transform="translate(850.512 194.799)" fill="#5e7884"/>
      <path id="Path_35650" data-name="Path 35650" d="M417.052,658.635s19.955-.985,22.741.531,2.53,7.959,2.53,7.959l-25.27-5.284Z" transform="translate(796.16 194.799)" fill="#5e7884"/>
      <path id="Path_35651" data-name="Path 35651" d="M355.541,668.186c-2.837-3.916-21.771-5.053-21.771-5.053H323.365s-18.935,1.137-21.771,5.053c-2.154,2.976-13.889,68.2-13.889,68.2h3.105s13.664-61.5,16.894-64.659c2.846-2.412,20.914-3.664,20.914-3.664h0c1.365-.027,17.968,1.254,20.814,3.665,3.23,3.158,16.894,64.659,16.894,64.659h3.106s-11.735-65.222-13.89-68.2" transform="translate(884.805 191.526)" fill="#fff"/>
      <path id="Path_35652" data-name="Path 35652" d="M299.823,438.315v0c-.458-.007-2.4-.007-2.86,0v0c-21.919.353-41.267,8.5-53.288,20.892,3.9,12.316,11.483,34.417,18.089,42.532,7.622,9.362,35.309,8.458,36.629,8.409,1.319.049,29.007.952,36.628-8.409,6.606-8.115,14.194-30.216,18.09-42.532-12.022-12.389-31.37-20.538-53.288-20.892" transform="translate(914.979 344.405)" fill="#00afcc"/>
      <path id="Path_35653" data-name="Path 35653" d="M1033.826,357.515s-1.359-13.034,3.5-20.144c3.894-5.7,14.409-11.787,18.42-13.971.99-.539.439-.651-1.39-.118-4.924,1.432-14.81,5.34-20.7,14.682-5.23,8.295-3.515,19.552-3.515,19.552Z" transform="translate(376.186 422.856)" fill="#43840b"/>
      <path id="Path_35654" data-name="Path 35654" d="M1002.411,320.509a17.512,17.512,0,0,1,7.6,4.939,54.824,54.824,0,0,1,6.677,11.355l-3.883,5.432s-1.75-9.48-4.661-14.22a27.689,27.689,0,0,0-6.571-6.891c-1.164-.893-.8-1.195.84-.615" transform="translate(396.044 424.707)" fill="#43840b"/>
      <path id="Path_35655" data-name="Path 35655" d="M1025.161,303.042a19.78,19.78,0,0,0-8.326,9.608c2.788-.4,2.233,1.849,2.233,1.849s.8-5.24,6.17-10.951c.389-.413.382-.778-.077-.506" transform="translate(385.117 436.446)" fill="#43840b"/>
      <path id="Path_35656" data-name="Path 35656" d="M1042.709,293.472c0,1.137-.318,2.059-.711,2.059s-.711-.922-.711-2.059.319-2.059.711-2.059.711.922.711,2.059" transform="translate(368.359 444.29)" fill="#43840b"/>
      <path id="Path_35657" data-name="Path 35657" d="M1045.7,302.8c1.07.327,1.847.9,1.734,1.286s-1.072.428-2.143.1-1.847-.9-1.734-1.286,1.073-.427,2.144-.1" transform="translate(366.812 436.698)" fill="#43840b"/>
      <path id="Path_35658" data-name="Path 35658" d="M1037.38,311.786c1.345.412,2.321,1.135,2.178,1.616s-1.347.537-2.693.126-2.321-1.135-2.179-1.616,1.349-.536,2.694-.125" transform="translate(372.893 430.624)" fill="#43840b"/>
      <path id="Path_35659" data-name="Path 35659" d="M1032.877,297.125c0,1.513-.423,2.74-.947,2.74s-.946-1.227-.946-2.74.423-2.74.946-2.74.947,1.227.947,2.74" transform="translate(375.42 442.268)" fill="#43840b"/>
      <path id="Path_35660" data-name="Path 35660" d="M1017.3,305.225c.609,1.8.6,3.439-.026,3.656s-1.62-1.068-2.228-2.87-.6-3.439.026-3.656,1.62,1.068,2.228,2.87" transform="translate(386.65 436.866)" fill="#43840b"/>
      <path id="Path_35661" data-name="Path 35661" d="M1004.213,335.227c1.87-.106,3.416.35,3.453,1.018s-1.45,1.3-3.321,1.4-3.416-.35-3.453-1.018,1.45-1.3,3.321-1.4" transform="translate(396.044 414.507)" fill="#43840b"/>
      <path id="Path_35662" data-name="Path 35662" d="M989.771,319.853c1.481-.084,2.7.277,2.734.806s-1.148,1.026-2.629,1.109-2.7-.277-2.733-.806,1.148-1.026,2.629-1.109" transform="translate(405.466 424.959)" fill="#43840b"/>
      <path id="Path_35663" data-name="Path 35663" d="M1001.888,308.075c.119,1.5-.206,2.756-.725,2.8s-1.036-1.142-1.156-2.645.206-2.756.725-2.8,1.036,1.141,1.156,2.645" transform="translate(396.666 434.76)" fill="#43840b"/>
      <path id="Path_35664" data-name="Path 35664" d="M1043.225,399.757c3.893-.222,7.112.724,7.189,2.115s-3.017,2.7-6.911,2.922-7.112-.725-7.189-2.115,3.017-2.7,6.911-2.922" transform="translate(371.768 370.639)" fill="#43840b"/>
      <path id="Path_35665" data-name="Path 35665" d="M1044.352,382.415c3.243-.186,5.924.6,5.988,1.762s-2.512,2.248-5.756,2.434-5.925-.6-5.988-1.762,2.513-2.248,5.756-2.433" transform="translate(370.204 382.428)" fill="#43840b"/>
      <path id="Path_35666" data-name="Path 35666" d="M1012.52,370.453c2.939,1.405,4.929,3.4,4.443,4.445s-3.261.762-6.2-.642-4.929-3.4-4.444-4.446,3.261-.763,6.2.643" transform="translate(392.374 391.411)" fill="#43840b"/>
      <path id="Path_35667" data-name="Path 35667" d="M1010.27,349.279c2.454.594,4.276,1.786,4.07,2.663s-2.36,1.1-4.813.511-4.277-1.788-4.071-2.664,2.361-1.1,4.814-.51" transform="translate(392.926 405.167)" fill="#43840b"/>
      <path id="Path_35668" data-name="Path 35668" d="M1033.575,325.659c-.238,2.015-.995,3.58-1.691,3.495s-1.067-1.787-.829-3.8,1-3.58,1.692-3.5,1.067,1.788.828,3.8" transform="translate(375.421 423.591)" fill="#43840b"/>
      <path id="Path_35669" data-name="Path 35669" d="M1042.788,338.322c-.238,2.015-.995,3.58-1.692,3.495s-1.067-1.788-.829-3.8,1-3.58,1.692-3.495,1.067,1.788.829,3.8" transform="translate(369.107 414.98)" fill="#43840b"/>
      <path id="Path_35670" data-name="Path 35670" d="M1052.521,364.985c2.674-.153,4.884.5,4.937,1.452s-2.071,1.853-4.745,2.007-4.884-.5-4.937-1.453,2.072-1.853,4.745-2.007" transform="translate(363.913 394.277)" fill="#43840b"/>
      <path id="Path_35671" data-name="Path 35671" d="M1069.821,348.377c2.193-.125,4.006.408,4.049,1.192s-1.7,1.52-3.893,1.646-4.006-.408-4.049-1.192,1.7-1.52,3.893-1.646" transform="translate(351.473 405.567)" fill="#43840b"/>
      <path id="Path_35672" data-name="Path 35672" d="M1093.589,332.193c1.694.591,2.9,1.561,2.7,2.167s-1.743.616-3.437.025-2.9-1.562-2.7-2.167,1.744-.616,3.438-.024" transform="translate(334.887 416.857)" fill="#43840b"/>
      <path id="Path_35673" data-name="Path 35673" d="M1111.141,323.294c.214.074.42.155.614.24,1.111.491,1.839,1.151,1.694,1.591-.171.516-1.481.534-2.927.039s-2.479-1.316-2.307-1.831,1.481-.534,2.927-.039" transform="translate(322.506 422.856)" fill="#43840b"/>
      <path id="Path_35674" data-name="Path 35674" d="M1109.407,310.193c0,.23-.008.454-.025.668-.1,1.229-.477,2.143-.933,2.145-.536,0-.976-1.253-.982-2.8s.423-2.81.958-2.813.976,1.253.982,2.8" transform="translate(323.005 433.427)" fill="#43840b"/>
      <path id="Path_35675" data-name="Path 35675" d="M1091,315.9c0,.271-.009.535-.029.787-.115,1.447-.561,2.522-1.1,2.525-.63,0-1.148-1.475-1.156-3.3s.5-3.308,1.128-3.31,1.148,1.475,1.156,3.3" transform="translate(335.859 429.88)" fill="#43840b"/>
      <path id="Path_35676" data-name="Path 35676" d="M1072.344,320.42c0,.367-.012.723-.04,1.064-.155,1.957-.76,3.413-1.486,3.416-.853,0-1.553-2-1.565-4.468s.674-4.476,1.527-4.48,1.554,2,1.564,4.467" transform="translate(349.194 427.603)" fill="#43840b"/>
      <path id="Path_35677" data-name="Path 35677" d="M1056.429,331.447c0,.367-.013.724-.04,1.064-.155,1.957-.759,3.413-1.486,3.416-.853,0-1.553-2-1.565-4.468s.674-4.476,1.527-4.48,1.553,2,1.564,4.467" transform="translate(360.101 420.105)" fill="#43840b"/>
      <path id="Path_35678" data-name="Path 35678" d="M1007.233,394.374c3.269.926,5.659,2.623,5.339,3.792s-3.229,1.363-6.5.436-5.659-2.624-5.339-3.792,3.229-1.363,6.5-.436" transform="translate(396.17 374.676)" fill="#43840b"/>
      <path id="Path_35679" data-name="Path 35679" d="M1021.976,425.6v-1.367H992.4V425.6a15.064,15.064,0,0,0,8.2,13.466h13.175a15.065,15.065,0,0,0,8.2-13.466" transform="translate(401.864 353.974)" fill="#fff"/>
      <rect id="Rectangle_3104" data-name="Rectangle 3104" width="382.669" height="294.637" transform="translate(1081.975 642.446)" fill="none"/>
      <rect id="Rectangle_3105" data-name="Rectangle 3105" width="382.669" height="294.637" transform="translate(1081.975 642.446)" fill="none"/>
      <path id="Path_35553" data-name="Path 35553" d="M716.5,108.272,579.918,23.945S591.3-3.055,622.37.286s76.712,35.036,76.712,35.036,45.9-5.77,67.574-3.569,59.758,22.6,68.554,50.4c8.8,27.816-39.1,61.84-118.712,26.123" transform="translate(648.379 858.362)" fill="#f2b59e"/>
      <path id="Path_35554" data-name="Path 35554" d="M800.611,202.71c-13.967-2.975-125.923-73.2-129.908-75.672l.946-1.523c.973.6,115.672,72.531,129.335,75.441Z" transform="translate(587.083 773.616)" fill="#b98e7f"/>
    </g>
  </g>
</svg>
