<svg class="s-model-5" xmlns="http://www.w3.org/2000/svg" width="726" height="358" viewBox="0 0 726 358">
  <g id="Group_7476" data-name="Group 7476" transform="translate(1377.546 -72)">
    <g id="Group_7456" data-name="Group 7456" transform="translate(-1377.546 100.574)">
      <path id="Path_40589" data-name="Path 40589" d="M-1189.483,444.743H-1202.9l-15.43-10.883-.079-.378c-.027-.13-2.744-13.023-4.723-17.859-4.46-8.305-6.488-28.269-6.572-29.117-.458-9.238-1.685-33.392-1.9-34.777-.468-1.393-9.494-9.2-13.322-10.367a10.449,10.449,0,0,1-6.035-4.592l-.066-.157c-.037-.114-3.734-11.494-6.742-16.922-3.078-5.555.233-15.3.781-16.816-.009-.929.179-4.467,3.168-8.975,2.5-3.771.122-10.841-.668-12.922h-14.89l-.2-.7c-2.785-9.569-8.123-13.535-9.246-14.28-.872.019-3.537.074-5.967.074-1.742,0-3.031-.028-3.831-.083l-.429-.029-.267-.339c-3.671-4.655-5.375-4.921-11.714-5.911l-1.4-.221c-7.89-1.257-12.546-11.737-12.74-12.182l-.039-.1c-1.856-6.025-7.121-22.21-9.183-24.712-1.355-1.644-2.381-1.772-2.663-1.772a.633.633,0,0,0-.41.113c2.611,4.815,7.329,18.416,6.724,20.26a1.106,1.106,0,0,1-.6.681l-.491.219-.445-.3c-10.063-6.805-11.855-23.178-12.047-25.3l-4.033-7.742.013-.268c0-.068.358-6.888.091-13.255-.184-4.381,2.532-9.385,8.072-14.874l.212-.21c1.2-1.211,5.576-7.637,6.04-9.034.4-1.372-1.04-12.832-1.3-14.476-.284-.808-3.207-6.166-5.219-7.867-1.1-.931-9.853-1.78-18.36-1.78a36.891,36.891,0,0,0-4.75.2c-1.935,1.557-10.094,5.561-11.813,5.561-1.516,0-11.99-6.423-12.153-8.393-.144-1.741,3.759-6.338,4.09-6.6.836-.67,6.047-1.067,6.864-1.123a38.532,38.532,0,0,0,6.162-4.357,11.3,11.3,0,0,0,.5-1.372c.434-1.333.684-2.043,1.219-2.365.337-.2.78-.257,2.891-.442a37.233,37.233,0,0,0,4.051-.491,6.906,6.906,0,0,1,.679-1.392l.175-.272.3-.114a21.272,21.272,0,0,1,6.171-1.318c.914,0,4.78-1.239,8.52-2.437,5.865-1.879,12.514-4.009,15.974-4.258,2.546-.183,6.581.987,11.289,2.362,5.332,1.557,11.376,3.322,16.246,3.321a15.463,15.463,0,0,0,2.753-.227,47.22,47.22,0,0,1,8.487-.665c4.354,0,8.615.392,12.037.707,2.106.194,3.923.361,5.048.361,3.954,0,7.927-2.842,8.205-4.238l.078-.4.336-.225a19.7,19.7,0,0,1,11.315-3.376,33.608,33.608,0,0,1,6.051.635c3.445.625,4.666,4.08,4.913,6.419l2.937.246a4.665,4.665,0,0,1,1.778-3.873,16.955,16.955,0,0,1,8.536-2.807,4.313,4.313,0,0,1,1.052.111c1.74.437,8.758,7.351,11.694,10.3l.365.366-.1.51c-.375,1.983-1.845,8.453-4.971,8.453a2.4,2.4,0,0,1-.949-.2c-.415-.178-1.647-.479-5.23-.479-4.178,0-9.274.41-10.616.525-1.437,1.376-8.707,8.347-10.561,10.21a1.875,1.875,0,0,0,0,2.808l.275.284.005.4c0,2.266,7.9,4.339,13.237,5.027l1.048.135-.22,1.04a19.121,19.121,0,0,0-.113,6.373v.006a12.8,12.8,0,0,0,1.7-3.591c.615-2.227,10.6-10.4,14.157-13.265l.277-2.641.75-.108a6.467,6.467,0,0,0,3.128-2.215,6.5,6.5,0,0,1,4.891-2.3,4.343,4.343,0,0,1,1.9.39,42.579,42.579,0,0,0,6.047,1.111l.829.111.015.841c0,.214.078,4.3.045,6.74,1.329-.575,3.625-1.716,5.6-2.766l1.428-.76v9.338c.188,1.019,4.38,6.419,8.155,10.81l.237.276v6.159l-.967.006c-.175,0-16.438.105-21.05.118a18.953,18.953,0,0,1-1.311,3.122c-.141.285-.31.627-.441.916a12.913,12.913,0,0,1,4.261,3.8,3.038,3.038,0,0,1,.343,3.073c-.591,1.188-1.961,1.792-4.07,1.792a29.879,29.879,0,0,1-6.575-1.056c-2.516,6.3-16.686,14.726-20.488,14.989-2.127.148-5.708,4.15-7.605,6.808v6.3l-.211.267c-.12.153-3.046,3.77-11.052,6-6.86,1.91-4.955,13.236-4.936,13.35l.081.461-6.769,7.779-.271-2.163c-.008-.056-.725-5.622-2.977-9.246-.544-.874-3.038-2.342-13.632-2.342-2.974,0-5.817.114-7.893.2-.833.034-1.54.062-2.079.076-3.841.1-5.05,6.486-5.062,6.55l-.015.068c-.03.118-3.036,11.971-1.8,16.364.543,1.934,1.92,2.834,4.336,2.834a14.1,14.1,0,0,0,1.657-.117c.165-.021.307-.036.423-.045a76.348,76.348,0,0,0,7.028-7.16l.313-.348.466.027c9.189.536,9.189,1.3,9.189,2.184v.213l-.089.195c-3.588,7.846-2.537,10.6-2.108,11.288l7.714.369.255.512c.391.786.336,3.973.222,6.508l-.036.221c-1.694,6.055.679,9.116,1.409,9.882,3.059.3,8.61.805,9.763.805.8-.2,4.062-3.6,6.561-6.635l.33-.4.514.05c.2.019,19.691,1.925,26.279,1.925h.128l.124.034c6.278,1.689,12.341,9.778,13.7,11.692,1.161.077,3.214.207,3.787.207.691,0,1.038,0,8.729,11.271,3.169,4.646,6.3,9.34,7.1,10.558,2.769.782,20.057,5.674,22.674,6.815,2.879,1.26,9.351,7.279,9.625,7.534l.3.277.012.41c.01.317.238,7.8,0,11.187l-.024.351-.242.255a64.566,64.566,0,0,0-4.982,6.235c.137,2.045.787,12.071.449,14.671-.385,2.966-7.5,9.844-8.929,11.192l-.254.242-7.138.476-5.121,5.918c.026,1.266.095,5.32-.008,7.286-.126,2.387-5.51,12.609-6.588,14.634l-.107.16-10.2,12.429-3.539,2.922-.231.049a38.989,38.989,0,0,1-4.818.574c-1.708,7.943-.06,26.678.343,30.9,1.368.035,4,.1,5.111.1,1.8,0,4.357,3.363,5.718,5.369Z" transform="translate(1377.546 -115.317)" fill="#00afcc"/>
    </g>
    <g id="Group_7457" data-name="Group 7457" transform="translate(-1265.345 221.667)">
      <path id="Path_40590" data-name="Path 40590" d="M-1177.556,331h0a41.082,41.082,0,0,1-8.078-1.086,4.594,4.594,0,0,1-2.179-1.849,5.076,5.076,0,0,0-2.012-1.812c-1.889-.778-9.271-1.24-10.386-1.24a2.159,2.159,0,0,1-1.879-1.036,2.558,2.558,0,0,1-.217-2.172c.324-.887,1.38-1.331,3.894-2.2.607-.21,1.179-.408,1.549-.571a6.37,6.37,0,0,1,2.54-.412,24.764,24.764,0,0,1,3.654.346c1.813.283,5.123,1.214,5.5,1.322.481.1,2.493.583,3.316,1.667a18.127,18.127,0,0,0,3.588,2.744c.719.315,3.447,2.809,3.447,4.564a1.564,1.564,0,0,1-.932,1.485A4.674,4.674,0,0,1-1177.556,331Z" transform="translate(1202.455 -318.62)" fill="#00afcc"/>
    </g>
    <g id="Group_7458" data-name="Group 7458" transform="translate(-1239.901 231.079)">
      <path id="Path_40591" data-name="Path 40591" d="M-1151.25,339.663c-.469,0-2.238-.055-3.409-.092-.5-.017-.88-.028-.946-.029a25.582,25.582,0,0,0-2.558.083,2.918,2.918,0,0,1-.5.036,23.292,23.292,0,0,1-2.924-.284,1.376,1.376,0,0,1-1.009-.751,1.762,1.762,0,0,1,.015-1.468,3.327,3.327,0,0,1,1.886-1.575,15.882,15.882,0,0,0,1.926-1.026,6.856,6.856,0,0,1,3.271-.549c.261,0,.426.006.426.006l.145,0a4.8,4.8,0,0,0,1.376-.161,2.065,2.065,0,0,1,.675-.111,3.208,3.208,0,0,1,2.192,1.04l.106.113a4.264,4.264,0,0,1,1.367,2.3,2.62,2.62,0,0,1-1.837,2.458C-1151.082,339.659-1151.15,339.663-1151.25,339.663Z" transform="translate(1162.751 -333.743)" fill="#00afcc"/>
    </g>
    <g id="Group_7459" data-name="Group 7459" transform="translate(-1193.696 72)">
      <path id="Path_40592" data-name="Path 40592" d="M-1041.316,127.92a1.715,1.715,0,0,1-1.183-.377l-.616-.539.317-.694a17.018,17.018,0,0,0-2.739-6.581c-1.183-1.3-1.23-4.386-1.2-5.653.027-.974.21-4.258,1.422-5.588.614-.8.972-6.233.941-11.042-.712-.634-1.68-2.145-1.68-5.672,0-.639-.74-2.722-10.251-2.722-.892,0-1.69.018-2.317.03-.418.009-.764.016-1.016.016-2.178,0-3.62-2.484-4.574-4.126-.165-.284-.375-.646-.519-.86a14.948,14.948,0,0,0-9.519,3.737c-3.186,2.944-7.728,3.261-9.533,3.261-1.093,0-4.765-.135-6.155-1.877-1.442-1.807-.323-5.425.055-6.492.769-2.171,2.158-4.561,3.754-4.755,2.341-.286,8.733-1.521,10.067-2.4,1.221-.806,6.421-.927,9.412-.927,1.719,0,7.417.051,8.585.691a2.25,2.25,0,0,0,.792.083c2.231,0,7.322-1.086,13.617-2.906a15.4,15.4,0,0,1,4.232-.526c6.428,0,14,2.778,15.211,3.238,1.75.025,17.263.246,19.388.246a2.975,2.975,0,0,0,2.209-.613l.28-.408.432.024,6.342-.258.19.081c.04.017,4.106,1.746,6.886,1.746a4.948,4.948,0,0,0,.8-.059,41.4,41.4,0,0,1,6.406-.7c1.823,0,3,.3,3.69.931,1.936,1.767,1.391,9.02.247,11.528l-.228.5-.5.079c-1.076.384-5.081,6.5-6.334,9.02-.685,1.377-2.79,1.939-4.95,2.134a6.338,6.338,0,0,1,.517,2.174,2.245,2.245,0,0,1-.534,1.635c-1.421,1.693-5.7,1.947-8.131,1.947-2.07,0-4.866-.207-5.931-.792a2.164,2.164,0,0,0-1.058-.284c-.921,0-2.008.615-3.326,1.879-2.019,1.94-11.8,5.482-16.416,6.242-3.4.559-4.261,5.433-4.723,8.052-.058.327-.109.616-.157.856C-1029.7,124.107-1038.877,127.92-1041.316,127.92Z" transform="translate(1090.648 -72)" fill="#00afcc"/>
    </g>
    <g id="Group_7460" data-name="Group 7460" transform="translate(-1096.694 112.528)">
      <path id="Path_40593" data-name="Path 40593" d="M-931.178,140.4h0c-1.307,0-2.927-.086-4.108-.15-.676-.037-1.212-.066-1.468-.066a2.115,2.115,0,0,1-2.048-1.39,1.982,1.982,0,0,0-.135-.245,1.577,1.577,0,0,1-.311-1.276,2.747,2.747,0,0,1,1.442-1.709,1.628,1.628,0,0,0,.6-.528A4.289,4.289,0,0,1-936.2,133.8l.294-.254.373.026c.008,0,.782.055,1.561.055a8.413,8.413,0,0,0,1.036-.05,34.449,34.449,0,0,1,3.546-.137c.6,0,4.814.125,4.994.13a1.723,1.723,0,0,1,1.791,1.245,2.438,2.438,0,0,1-.85,2.354,7.807,7.807,0,0,0-1.176,1.119,3.569,3.569,0,0,1-2.515,1.143,2.94,2.94,0,0,0-1.445.616A5.107,5.107,0,0,1-931.178,140.4Z" transform="translate(939.276 -133.438)" fill="#00afcc"/>
    </g>
    <g id="Group_7461" data-name="Group 7461" transform="translate(-696.141 387.496)">
      <path id="Path_40594" data-name="Path 40594" d="M-309.741,617.677a4.479,4.479,0,0,1-2.563-1.433l-.388-.342a3.709,3.709,0,0,1-1.464-2.025,4,4,0,0,1,.4-2.282,11.127,11.127,0,0,0,.363-1.079,11.288,11.288,0,0,1,3.953-5.833,4.389,4.389,0,0,1,2.8-1.174,4.328,4.328,0,0,1,2.341.811c.064.041.124.082.177.114a2.324,2.324,0,0,0,.8-.828c.228-1.013,1.309-2.112,3.645-2.112.734,0,2.826-1.446,3.95-2.222,1.345-.931,1.825-1.247,2.285-1.269.151-.1.408-.322.6-.49a6.892,6.892,0,0,1,2.575-1.6,2.215,2.215,0,0,1,2.445,1.053,3.063,3.063,0,0,1,.359,2.421,3.536,3.536,0,0,0,.759,1.061l.236.233.067.34c.433,2.211.139,2.61-.056,2.874a1.015,1.015,0,0,1-.818.429h0a.968.968,0,0,1-.394-.082,27.488,27.488,0,0,0-3.33.606,19.133,19.133,0,0,1-2.273.433,30.97,30.97,0,0,0-4.821,3.981l-.254.281c-4,4.44-5.28,5.308-6.148,5.308a8.534,8.534,0,0,0-3.852,2A1.61,1.61,0,0,1-309.741,617.677Z" transform="translate(314.21 -595.842)" fill="#00afcc"/>
    </g>
    <g id="Group_7462" data-name="Group 7462" transform="translate(-730.105 388.399)">
      <path id="Path_40595" data-name="Path 40595" d="M-363.613,608.824h0a6.862,6.862,0,0,1-1.039-.11,4.556,4.556,0,0,0-.557-.07,1.873,1.873,0,0,1-1.9-1.491,4.012,4.012,0,0,1,.677-3.038,1.765,1.765,0,0,0,.192-.828c.013-.147.026-.294.047-.441s.063-.356.109-.575a3.185,3.185,0,0,0,.113-1.34,2.381,2.381,0,0,1,.335-2.534,3.491,3.491,0,0,0,.189-.3,1.993,1.993,0,0,1,1.9-.883c.382,0,.777.037,1.125.071.222.021.422.042.566.042a4.352,4.352,0,0,1,2.179.923c.179.118.347.228.492.309a4.567,4.567,0,0,0,1.339.124c.361,0,.635-.015.646-.016l.115-.005.113.022a1.5,1.5,0,0,1,1.259,1.088,2.148,2.148,0,0,1-.747,1.981,1.049,1.049,0,0,1-.379.268,6.509,6.509,0,0,1-.986,1.416c-.126.135-.915.869-1.486,1.4l-.08.227c-.612,1.739-.934,2.262-1.5,2.433a8.3,8.3,0,0,0-1.455.9A1.78,1.78,0,0,1-363.613,608.824Z" transform="translate(367.212 -597.211)" fill="#00afcc"/>
    </g>
    <g id="Group_7463" data-name="Group 7463" transform="translate(-668.984 367.496)">
      <path id="Path_40596" data-name="Path 40596" d="M-268.373,591.566a2.281,2.281,0,0,1-2.138-2.049c0-.053.01-.231.026-.5.046-.786.142-2.422.1-3.448a3.4,3.4,0,0,0-.612-1.556,7.156,7.156,0,0,1-.738-1.55,2.055,2.055,0,0,1,.164-1.635c.452-.788,1.435-1.277,3.007-1.49a.5.5,0,0,0,.2-.055,2.217,2.217,0,0,0,.133-.305c.063-.165.131-.333.213-.5a7.1,7.1,0,0,1,.658-.993,5.225,5.225,0,0,0,.654-1.021,3.786,3.786,0,0,0,.139-.612,4.668,4.668,0,0,1,.752-2.034,3.793,3.793,0,0,0,.286-1.918l0-.291a2.251,2.251,0,0,0-.5-1.513,3.168,3.168,0,0,1-.735-2.321,2.725,2.725,0,0,1,.829-1.936,1.335,1.335,0,0,1,.88-.32,3.454,3.454,0,0,1,2.807,2.885,4.99,4.99,0,0,0,1.467,2.108c.838.755.989,2.863.965,4.54a6.106,6.106,0,0,0,.4,1.446,1.79,1.79,0,0,0,.276.018,10.066,10.066,0,0,0,1.089-.092,11.126,11.126,0,0,1,1.205-.1,2.529,2.529,0,0,1,2.217,1.468,2.08,2.08,0,0,1-.012,1.991,3.053,3.053,0,0,0,.074.637,5.129,5.129,0,0,1,.09.832c0,1.635-2.59,2.17-3.7,2.325a16.8,16.8,0,0,1-1.728.082,12.014,12.014,0,0,0-2.191.151,3.067,3.067,0,0,0-.932,1.97,3.042,3.042,0,0,1-.968,2.108,2.2,2.2,0,0,0-.381.5c-.425,1.12-1.137,1.737-2.574,2.7A2.531,2.531,0,0,1-268.373,591.566Z" transform="translate(271.832 -565.523)" fill="#00afcc"/>
    </g>
    <g id="Group_7464" data-name="Group 7464" transform="translate(-786.99 304.054)">
      <path id="Path_40597" data-name="Path 40597" d="M-394.018,549.738c-4.669,0-6.416-1.848-7.256-2.737-.09-.094-.161-.176-.224-.228-1.08-.631-2.863-4.239-3.014-5.519-.164-.463-1.776-1.608-2.843-2.366-.618-.439-1.257-.893-1.85-1.356-1.826-1.424-2.277-4.316-2.381-5.943-2.345.077-8.481.259-13.73.259-5.069,0-8.916,3.525-10.982,5.42a16.351,16.351,0,0,1-1.293,1.117,3.76,3.76,0,0,1-2.268.579,20.635,20.635,0,0,1-2.725-.265,12.214,12.214,0,0,0-3.606-.166,9.528,9.528,0,0,1-2.169.274h0a4.5,4.5,0,0,1-1.87-.33,18.851,18.851,0,0,0-4.472-1.361,1.244,1.244,0,0,1-1.146-.763c-.85-1.862,2.6-7.772,3.028-8.485.161-.71-.615-3.783-1.678-6.64l-.058-.155-.012-.17c-.005-.079-.535-7.9-1.07-11.62-.685-4.765,9.319-11.461,11.828-12.309,2.528-.853,14.531-6.349,14.652-6.405.562-.354,3.766-3.815,5.885-6.105,1.825-1.97,3.4-3.672,4.112-4.329.885-.817,3.895-3.483,5.472-3.483a1.377,1.377,0,0,1,.8.238,8.313,8.313,0,0,1,1.179,1.168c.609.671,2.009,2.208,2.645,2.315a7.92,7.92,0,0,0,.645-1.681,11.2,11.2,0,0,1,1.952-4.1c2.281-2.62,12.816-2.7,14.01-2.7a1.508,1.508,0,0,1,1.543,1c.431,1.235-.751,2.641-1.359,3.258-.3.936.338,5.322.938,7.779.361.8,4.327,3,6.71,3a2.471,2.471,0,0,0,.388-.028c1.339-.218,2.613-5.46,3.093-7.433.169-.693.315-1.292.442-1.712a22.81,22.81,0,0,0,.759-5.829c.026-.6.338-2.575,3.257-2.575a6.489,6.489,0,0,1,1.116.094l.552.1.2.575a30.347,30.347,0,0,1,1.5,5.9,2.583,2.583,0,0,0,.474,1.306c.281.414.57.6.72.6l.2-.017c1.271,0,2.005,1.273,3.705,13.459.036.249.065.474.094.669,2.138.939,5.571,4.748,7.555,7.6,2.773,3.986,1.434,15.476,1.271,16.774-.393,5.038-1.321,11.2-3.479,11.656-1.378.391-8.729,8.8-13.1,15C-379.989,548.871-389.007,549.738-394.018,549.738Z" transform="translate(455.981 -469.35)" fill="#00afcc"/>
    </g>
    <g id="Group_7465" data-name="Group 7465" transform="translate(-732.503 282.371)">
      <path id="Path_40598" data-name="Path 40598" d="M-326.082,452.232a42.314,42.314,0,0,1-4.786-.615l-.207-.037-.175-.128a9.546,9.546,0,0,0-1.346-.856c-.591-.126-1.123-.754-1.686-1.418-.125-.148-.246-.291-.359-.416a11.8,11.8,0,0,0-2.262-1.536,11.205,11.205,0,0,0-3.358-1.526c-.221-.02-.449-.032-.673-.032a3.035,3.035,0,0,0-1.6.292,9.514,9.514,0,0,1-3.937,1.389,1.572,1.572,0,0,1-.242-.017c-.305-.041-.7-.137-1.161-.25a14.317,14.317,0,0,0-1.949-.383c-1.716-.139-3.578-2.7-4.149-3.676a19.759,19.759,0,0,1-2.1-4.434c-.395-1.3-2.518-3.047-3.66-3.984l-.073-.061c-.1-.082-.57-.346-2.481-.346-.677,0-1.376.031-2.01.058-.551.025-1.054.046-1.459.046a2.842,2.842,0,0,1-1.262-.187c-1.127-.547-.976-2.187-.854-3.505.012-.128.026-.283.038-.429a3.511,3.511,0,0,1-1.9-.617c-1.435-1.051-1.28-2.8-1.116-4.653l.022-.259c.228-2.606,3.2-4.465,4.938-4.337,1.853.127,3.648,4.482,4.26,6.122a7.2,7.2,0,0,0,2.343,1.011,2.793,2.793,0,0,1,2.245-.807,3.891,3.891,0,0,1,2.642.868,3.06,3.06,0,0,0,1,.107,29.514,29.514,0,0,0,3.523-.333l.265-.034a3.33,3.33,0,0,1,.422-.024c2.456,0,7.856,2.465,8.465,2.747l.093.049c4.078,2.472,4.27,2.737,4.4,2.913a16.721,16.721,0,0,0,2.106,2.278,1.449,1.449,0,0,1,.92.668c.654.938,2.039,4.441,1.692,5.84a9.43,9.43,0,0,0,1.1,3.106,3.736,3.736,0,0,1,1.667,1.69,8.411,8.411,0,0,0,2.153,1.162c1.1.155,1.9,1.823,2.04,2.715a1.487,1.487,0,0,1-.65,1.667A1.718,1.718,0,0,1-326.082,452.232Z" transform="translate(370.954 -420.31)" fill="#00afcc"/>
    </g>
    <g id="Group_7466" data-name="Group 7466" transform="translate(-1074.949 137.253)">
      <path id="Path_40599" data-name="Path 40599" d="M-901.246,182.275h0a7.115,7.115,0,0,1-1.577-.224c-.129-.029-.258-.057-.383-.083a2.623,2.623,0,0,1-2.136-2.791,5.549,5.549,0,0,1,1.235-2.923c.045-.063.079-.113.1-.147,0-.015.042-.126.093-.261.431-1.141.888-2.194,1.733-2.513a4.738,4.738,0,0,0,1.573-1.253,2.474,2.474,0,0,1,2.642-1.065,2.044,2.044,0,0,1,.617.35,2.227,2.227,0,0,0,.9.36c2,.55,1.832,4.031,1.735,5.086-.049,1.447-1.958,3.135-3.107,3.323-.066.077-.16.2-.232.3a4.534,4.534,0,0,1-1.54,1.449A3.522,3.522,0,0,1-901.246,182.275Z" transform="translate(905.343 -170.919)" fill="#00afcc"/>
    </g>
    <g id="Group_7467" data-name="Group 7467" transform="translate(-1068.107 125.707)">
      <path id="Path_40600" data-name="Path 40600" d="M-887.027,180.275c-.45,0-2.725-.038-3.421-.8a2.779,2.779,0,0,1-.355-2.431,4.462,4.462,0,0,0,.07-.523,5.957,5.957,0,0,1,1.3-2.742c.257-.393.548-.838.636-1.033a6.009,6.009,0,0,0,.24-1.141,8.191,8.191,0,0,1,.513-2.067,2.941,2.941,0,0,1,1.307-1.284l-.447-.08a6.07,6.07,0,0,1-2.224-.645c-1-.689-1.01-2.24-1.019-3.37,0-.159,0-.358-.01-.5a9.733,9.733,0,0,0-2.474-1.246c-1.656-.606-1.707-2.455-1.727-3.152,0-.085,0-.159-.01-.215a5.952,5.952,0,0,1,1.1-3.241,4.754,4.754,0,0,1,3.241-2.336c2.647-.389,4.513,1.413,4.772,4.535.1,1.233,1.414,3.453,2.215,4.563l.17.235.034.3c.252,1.188,4.714,6.91,5.7,7.5,1.387.634,1.68,3.423,1.74,4.593l.033.628-.486.336c-.012.007-1.138.789-1.844,1.39a2.131,2.131,0,0,1-1.444.464h0a9.276,9.276,0,0,1-2.227-.4c-.339-.089-.655-.175-.916-.218h0c-.141,0-.635.144-1.712,1.919C-884.673,179.968-885.549,180.275-887.027,180.275Z" transform="translate(894.665 -153.415)" fill="#00afcc"/>
    </g>
    <g id="Group_7468" data-name="Group 7468" transform="translate(-1098.099 82.756)">
      <path id="Path_40601" data-name="Path 40601" d="M-846.124,401.339a75.144,75.144,0,0,1-11.982-1.3l-.7-.135-.1-.767c-.384-2.967-1-7.806-1.118-9.024-.109-.222-.385-.725-.652-1.214-1.723-3.143-5.309-9.681-5.309-13.929,0-5.089-2.076-12-4.632-15.4-2.846-3.792-5.2-11.983-2.412-16.191,2.228-3.36,3.766-13.252,3.579-15.916-.119-1.706-1.621-5.228-2.518-7.335-.847-1.988-.956-2.243-.8-2.753.088-.466.359-4.311-1.462-5.893-2.77-2.406-4.16-10-3.114-12.014.6-1.148.638-7.973-.322-10.074-.5-1.092-5.8-1.451-7.54-1.569-2.026-.137-2.718-.2-3.15-.464a3.209,3.209,0,0,1-1.239-2.3c-2.307.337-9.588,1.63-10.511,2.232a5.241,5.241,0,0,1-5.223.784,8.328,8.328,0,0,0-2.538-.236c-2.275,0-4.957.283-4.983.286l-.087.01-7.5-.677-.224-.187c-.031-.024-3.164-2.6-5.477-4.193-2.56-1.755-6.7-8.472-6.7-10.357-.063-.636-2.022-2.174-2.655-2.306h0c-1.051,0-4.776-2.47-5.339-3.2-.948-1.222-.693-10.193-.188-11.98a3.789,3.789,0,0,1,1.886-2.462,3.085,3.085,0,0,0,.28-.18,11.1,11.1,0,0,0-1.663-4.053c-.616-.774-.686-2.727-.342-9.5.056-1.06.1-1.976.1-2.393,0-1.9,2.237-6.718,2.685-7.665l.117-.246.212-.153a27.343,27.343,0,0,0,5.608-5.589c1.312-3.94,6.5-7.524,9.017-9.259l.186-.128a44.323,44.323,0,0,1-.783-5.2l-.081-.792.67-.309a6.83,6.83,0,0,0,2.547-2.228c1.168-1.862,5.53-4.949,6.024-5.294l.252-.177.3.009c.017,0,1.792.055,3.82.055a40.536,40.536,0,0,0,5.107-.21c1.842-1.755,7.734-3.788,12.195-4.166,4.354-3.249,15.669-3.7,16.158-3.719l.122,0,.122.029c.29.071,2.863.751,3.674,2.754a3.676,3.676,0,0,1-.266,3.16c-1.068,2.067-.347,6.1.185,8.139,2.589.249,6.4.8,7.316,1.92,1.049,1.28,6.281,5.73,7.559,6.043a13.011,13.011,0,0,0,1.543-2.036c1.661-2.453,3.936-5.812,7.2-6.2,3.225-.387,6.875,2.217,9.468,4.089a12.578,12.578,0,0,0,2.634,1.664c1.641,0,7.611-.8,8.579-1.284.364-.369,1.164-.787,7.623-.787.534,0,.99,0,1.313,0h.192a10.81,10.81,0,0,0,.817-3.821,33.75,33.75,0,0,1,.417-5.978c.044-.234.07-.417.085-.559h-6.78l-.2-.106a20.665,20.665,0,0,0-5.187-1.757c-1.059-.193-2.294-.4-3.5-.6-2.286-.385-4.263-.716-5.015-.941-1.661-.5-1.237-3.32-.861-5.812.063-.421.142-.944.144-1.086,0-1.555,4.568-4.107,8.4-5.975a9.461,9.461,0,0,1,3.8-.549,24.2,24.2,0,0,1,8.137,1.292,34.184,34.184,0,0,0,9.647,1.881c1.346,0,2.555-1.354,3.233-2.3a14.4,14.4,0,0,0-2.556-2.331,7.346,7.346,0,0,1-1.8-1.668,17.817,17.817,0,0,0-3.241-3.959c-.475-.04-1.234-.373-1.671-1.957-.283-1.022-.51-3.175.641-4.016l.285-.2c.562-.4,1.816-1.295,2.026-1.981-.038,0-.081-.006-.133-.006a1.984,1.984,0,0,0-.969.261,4.406,4.406,0,0,1-3.244,1.6,11.957,11.957,0,0,0-2.36,1.52c.059,1.325,0,3.148-.676,3.953a1.33,1.33,0,0,1-1.022.5l-.643.006c-.889,0-3.595,0-4.854-2.387l-.09-.228c-.578-2.11-2.788-2.273-3.452-2.273a3.039,3.039,0,0,0-1.248.218c-.841.635-2.9,6.779-2.9,8.266a7.545,7.545,0,0,1-1.589,3.666,7.694,7.694,0,0,0-1.055,1.96c-.142,2-2.83,2.052-5.2,2.1-.579.011-1.126.021-1.45.063a7.385,7.385,0,0,0,.5,2.54l.125.4a7.874,7.874,0,0,1-.666,6.863,3.627,3.627,0,0,1-3.319,2.1c-1.865,0-4.216-1.352-4.59-2.614a18.048,18.048,0,0,0-2.17-2.136,16.045,16.045,0,0,1-2.031-2c-.873-1.232.3-2.8,1.543-4.469a14.556,14.556,0,0,0,1.11-1.618,8.659,8.659,0,0,0-1.322-1.309,4.954,4.954,0,0,1-1.3-1.4,14.992,14.992,0,0,0-3.849-1.612c-.326-.009-1.038,0-2.9-2.954a4.181,4.181,0,0,1-2.051-1.954c-.334-1.1-1.968-4.275-3-4.275a1.541,1.541,0,0,0-1.362.817,1.666,1.666,0,0,0,.467,1.434,105.379,105.379,0,0,0,11.248,10.114,2.132,2.132,0,0,1,1.282,2.419c-.1,1.05-.689,1.755-1.457,1.755a1.2,1.2,0,0,1-.372-.059,3.537,3.537,0,0,0-.952.39,2.793,2.793,0,0,1-.325,2.013c-.215.44-.989,1.877-1.931,1.877-.561,0-1.912-.309-2.348-3.172a5.231,5.231,0,0,0-2.229-3.184c-.2-.141-.673-.411-1.17-.7-2.341-1.35-3.172-1.9-3.441-2.533-.632-.7-4.157-3.422-5.51-4.467-.82-.633-1.22-.942-1.361-1.065a2.768,2.768,0,0,0-1.4-.573.374.374,0,0,0-.149.021c-.5.629-1.544,1.026-5.171,1.026-.534,0-1.035-.007-1.454-.015-.289,0-.538-.009-.727-.009a8.1,8.1,0,0,0-3.64.832c-.131.5-.668,1.736-3.978,4.589-.231.2-.432.365-.61.512a3.569,3.569,0,0,0-1.468,2.1,7.038,7.038,0,0,1-2.744,3.7,19.332,19.332,0,0,0-2.108,3.25c-.433,1.193-4.623,3.412-5.089,3.558a4.933,4.933,0,0,0-1.874,1.141,4.193,4.193,0,0,1-2.6.928,2.884,2.884,0,0,1-.859-.116c-.076-.025-.22-.078-.409-.147a11.984,11.984,0,0,0-2.154-.677,18.312,18.312,0,0,1-4.125-1.492l-.371-.166-.158-.4c-.1-.251-.519-1.009-1.048-1.106-1.764-.323-2.5-2.754-2.5-3.986a25.178,25.178,0,0,0-.663-3.536c-.386-1.7.407-4.047,2.425-7.184,2.31-3.591,8.169-3.591,10.986-3.591h.567c.386,0,.721,0,.986-.014a20.747,20.747,0,0,0,4.31-.837,7.585,7.585,0,0,1,.523-2.738,16.78,16.78,0,0,0-.481-4.961c-.3-.458-2.408-1.272-3.2-1.579a9.12,9.12,0,0,1-1.391-.6,2.929,2.929,0,0,1-1.214-1.992,2.456,2.456,0,0,1,.343-1.885c.416-.571,1.147-.633,2.912-.781a14.232,14.232,0,0,0,3.28-.515c.46-1.726,2.581-1.726,3.4-1.726.2,0,.391,0,.569.008.144,0,.278.006.4.006.988-.175,7.469-4.389,8.667-6.641,1.492-2.807,6-5.637,7.378-5.637a2.29,2.29,0,0,0,1.134-.509,12.514,12.514,0,0,1,.786-3.617,7.485,7.485,0,0,0-.481-2.626,1.823,1.823,0,0,1,.088-1.764,4.467,4.467,0,0,1,.923-1.175c-.24.011-.522.018-.855.018-1.6,0-3.467-.142-3.545-.148l-.907-.069v-1a6.825,6.825,0,0,0-1.548-3.759,3.194,3.194,0,0,1-.365-3.052c.934-2.822,4.789-6.12,6.984-6.521,1.658-.3,4.17-2.338,5.151-3.232a6.1,6.1,0,0,1,1.783-2.309,34.825,34.825,0,0,0,2.613-3.448c2.153-4.122,2.927-4.364,3.22-4.457a87.372,87.372,0,0,0,8.291-4c1.483-1.052,5.726-1.584,6.436-1.584a17.422,17.422,0,0,0,3.667-.675,3.822,3.822,0,0,1,1.614-.215c.67,0,1.481.04,2.266.08.927.046,1.821.094,2.274.055.065-.006.137-.01.213-.01a17.538,17.538,0,0,1,5.9,1.957,73.681,73.681,0,0,0,7.656,3.54c.845.319,1.719.592,2.565.856,2.241.7,4.01,1.249,4.829,2.445a1.37,1.37,0,0,1,.128,1.349c-.734,1.629-7.31,1.732-10.709,1.765-.241.175-.224.3-.213.367.158,1.1,2.613,3.058,3.832,3.269a1.086,1.086,0,0,0,.178.011c2.287,0,11.471-2.877,13.358-4.383,2.5-2,9.144-2.7,10.378-2.7,1.28,0,7.334-1.114,8.954-2.051a9.294,9.294,0,0,1,4.429-.8,25.356,25.356,0,0,1,2.665.142l.1.017a26.464,26.464,0,0,0,5.065.613c2.023,0,2.939-.436,3.121-.844.153-.344-.039-1.218-1.038-2.635-1.461-2.069-1.878-3.734-1.273-5.088.679-1.52,2.493-2.258,5.546-2.258a25.288,25.288,0,0,1,5.05.549,4.792,4.792,0,0,1,1.152.635c.984.639,2.633,1.71,3.976,1.709a1.721,1.721,0,0,0,1.5-.776c2.871-3.971,20.389-8.163,20.566-8.2.934-.223,2.157-.636,3.449-1.075,2.647-.9,5.646-1.914,7.935-1.914a4.263,4.263,0,0,1,2.764.808,3.172,3.172,0,0,0,2.012.916,3.972,3.972,0,0,0,1.514-.434c.279-.12.563-.239.857-.341a9.392,9.392,0,0,1,2.92-.346,31.594,31.594,0,0,1,4.135.306c.581.086,1.8.225,3.093.373,2.434.279,4.2.487,4.8.617a2.925,2.925,0,0,1,1.61.884,7.909,7.909,0,0,0,.818.687,1.715,1.715,0,0,1,.792,1.447c-.017.962-.824,1.505-1.536,1.984a5.079,5.079,0,0,0-.792.6,5.1,5.1,0,0,1-.745.654c-.439.333-.623.473-.649,1.395.312.175,1.413.571,4.97.571,2.267,0,4.606-.156,6-.249.574-.038.972-.064,1.124-.064a10.983,10.983,0,0,0,4.313-2.083c.551-1.09,2.224-1.177,5.132-1.237a18.728,18.728,0,0,0,2.468-.141,2.759,2.759,0,0,1,.513-.049,4.321,4.321,0,0,1,2.638,1.221c.388.309.828.659,1.079.659a13.75,13.75,0,0,1,7.634,3.164c1.645,1.145,18.09,1.23,26.925,1.275,5.73.029,10.255.052,11.8.241a90.327,90.327,0,0,1,9.735,2.176,46.77,46.77,0,0,0,5.111,1.185,9.219,9.219,0,0,0,2.358-.59,10.557,10.557,0,0,1,3.091-.713,7.558,7.558,0,0,1,3.8,1.523c.446.28.866.544,1.268.749.836.328,6.979.461,11.464.558a97.167,97.167,0,0,1,9.9.449c2.392.5,10.3,2.93,12.578,4.359,1,.538,8.449.538,12.451.538h1.634c8.417,0,10.659.137,11.422.7a7.941,7.941,0,0,1,2.145,3.56,13.792,13.792,0,0,0,1.718,3.37l1.8,2.3-2.716-.557a70.345,70.345,0,0,0-8.408-.475,17.308,17.308,0,0,0-3.883.261,16.8,16.8,0,0,0,.129,4.093l.039.386c.249,2.463-2.484,4.649-4.293,6.1l-.259.208c-.949.763-2.714.908-4.756,1.075a12.546,12.546,0,0,0-3.8.648c-.115,1.582,3.714,8.055,4.74,8.976,1.468,1.317,2.707,11.332,1.983,13.56-.338,1.042-1.03,1.155-1.312,1.155-1.626,0-7.082-1.179-12.721-6.565-4.366-4.168-3.164-10.848-2.286-15.726a27.618,27.618,0,0,0,.563-4.2c0-.548,0-1.565-2.069-1.565a12.881,12.881,0,0,0-3.962.834l-.13.048a32.506,32.506,0,0,1-11.378,2.08c-.889,0-1.784-.038-2.658-.116-.542-.047-1.089-.071-1.624-.071-6.415,0-11,3.313-12.7,6.6-1.194,2.307-1.541,3.98-1.031,4.973.528,1.029,2.142,1.614,4.668,1.691,8.017.245,12.336,8.283,14.181,11.716,2.146,3.992,2,12.053,1.028,14.166a1.444,1.444,0,0,1-.918.885,17.189,17.189,0,0,0-2.5,5.642c-.073,1.74-2.372,1.74-3.237,1.74-.724,0-1.453-.056-1.967-.107l-1.976,4.438c-.828,1.856-.456,5.117,6.007,10.121l.218.17a3.144,3.144,0,0,1,.875,3.161c-.217,1.247-1.027,3.21-2.1,3.6a10.34,10.34,0,0,0-.8.858c-1.143,1.306-2.711,3.1-4.522,3.1a2.648,2.648,0,0,1-.836-.135c-1.968-.658-2.967-3.122-2.967-7.324a8.186,8.186,0,0,0-1.61-2.312c-.329-.381-.64-.741-.859-1.052a3.222,3.222,0,0,1-.5-2.457,2.268,2.268,0,0,0,.02-.684c-.059-.292-.631-2.887-2.168-2.968-.371-.019-.752-.032-1.134-.044-1.955-.063-3.8-.123-5-1l-.07-.051a3.366,3.366,0,0,0-2.16-.869,8.089,8.089,0,0,0-3.628,1.205,3.517,3.517,0,0,0-2.11,2.835,3.706,3.706,0,0,0,1.237,2.935c.537.406,3.431.639,5.159.777,4.017.324,6.033.485,6.153,2.079.083,1.11-.623,2.124-1.374,3.2a10.451,10.451,0,0,0-1.335,2.3c.207,1.654,7,7.657,8.247,8.273.579.253,1.669.732.6,11.427a19.43,19.43,0,0,1-1.067,4.99,5.482,5.482,0,0,1-2.993,2.945,14.519,14.519,0,0,1-1.944,3.125,12.391,12.391,0,0,0-.135,1.579,8.794,8.794,0,0,1-.509,3.185c-.321.646-.625,1.254-11.212,2.36-5.036.525-10.168.915-10.538.915-.3,0-1.581.164-2.7.319-.39,3.12-.655,3.9-.916,4.21a17.262,17.262,0,0,0-.463,3.637c0,.641,1.682,2.3,2.315,2.923.3.3.57.563.767.777a12.654,12.654,0,0,0,1.787,1.314c1.536,1.018,2.418,1.633,2.692,2.435a12.3,12.3,0,0,0,2.233,1.716c.375.249.7.465.889.615a1.559,1.559,0,0,1,.568,1.049,5.117,5.117,0,0,1-1.1,2.972c-.519,3.746-.819,4.709-1.421,4.924a25.285,25.285,0,0,0-1.818,3.085c-.592,1.193-1.977,4.013-1.978,4.015l-.135.276-.251.152c-.584.354-3.575,2.121-5.072,2.121a1.809,1.809,0,0,1-.507-.069,9.262,9.262,0,0,1-2.957-2.106c-.377-.341-.731-.663-1.008-.877a5.418,5.418,0,0,1-1.578-2.608c-.315-.805-.705-1.808-1.393-3.185a2.073,2.073,0,0,0-1.865-1.383,4.226,4.226,0,0,0-3.053,1.857c-.95,1.321.885,5.8,1.512,6.758a9.268,9.268,0,0,0,.762.908,8.408,8.408,0,0,1,1.613,2.214c.313.774,1.282,2.917,1.633,3.692a18.087,18.087,0,0,0,2.709,1.478c1.6.526,3.653,5.492,3.759,6.676a16.278,16.278,0,0,1-2.042,7.651c-.23.379-.932,1.536-2.016,1.536-.944,0-1.537-.8-2.06-1.511-.171-.231-.333-.449-.492-.623a10.076,10.076,0,0,1-1.338-1.949,9.145,9.145,0,0,0-.877-1.351c-1.27-1.552-1.936-5.3-2.219-7.4a37.191,37.191,0,0,0-.943-4.655A11.641,11.641,0,0,1-663,277.192c-1.168-2.048-1.26-2.231-1.487-3.4-.049-.257-.113-.584-.215-1.038a23.009,23.009,0,0,1-.474-2.929,14.607,14.607,0,0,0-.223-1.544,7.9,7.9,0,0,1-.056-2.442,13.209,13.209,0,0,0,.037-2.48,5.021,5.021,0,0,0-.685-2.118,10.183,10.183,0,0,1-1.084-3.1c-.159-.863-.229-1.419-.281-1.825a3.155,3.155,0,0,0-.2-.931,3.8,3.8,0,0,1-1.13,1.178,2.551,2.551,0,0,1-1.435.453c-2.012,0-3.71-2.507-3.71-4.081-.116-.769-2.469-4.112-3.974-5.766-1.279-1.4-2.14-2.72-3.862-6.827a4.161,4.161,0,0,0-4.026-2.678,3.421,3.421,0,0,0-1.778.4c-1.425,1.04-6.607,5.454-7.108,6.347-.451.99-3.391,5.247-5.008,5.84a7.292,7.292,0,0,0-1.6,1.943,11.848,11.848,0,0,1-1.878,2.345c-.3.253-.615.494-.923.73-.623.479-1.569,1.2-1.569,1.575,0,.113-.185,11.586-1.521,12.867-.321.308-.321.308-.754,1.639-.248.768-.624,1.928-1.258,3.7-1,2.806-2.589,3.395-3.744,3.395a5.016,5.016,0,0,1-3.974-2.439c-.432-.945-7.651-14.575-8.538-15.939-1.159-1.776-1.539-4.223-.882-5.537.205-1.125-.374-7.5-.593-9.925-.1-1.058-.17-1.88-.192-2.255a5.413,5.413,0,0,0-.7-2.592,8.033,8.033,0,0,1-3.617.723c-1.65,0-2.749-.328-3.264-.976a35.272,35.272,0,0,1-2.033-3.411c-.685-1.222-1.538-2.742-1.83-3.108-.718-.9-3.6-3.244-4.336-3.331-.144,0-.65.034-1.4.082-2.284.144-6.534.414-10.447.414-6.181,0-7.76-.675-8.445-1.264a9,9,0,0,1-2.737-3.826c-1.891-.4-7.828-1.65-8.806-1.83-1.357-.247-3.647-2.112-4.092-2.484l-.226-.187-.1-.293h0s-.711-1.8-4.048-4.019a1.454,1.454,0,0,0-2.424.621,4.122,4.122,0,0,0-.436,2.725,100.361,100.361,0,0,1,5.769,8.336c.886,1.345,1.652,2.507,2.033,3.054.043.063.237.168.685.168,1.919,0,5.218-1.8,5.636-2.179a7.32,7.32,0,0,1,3.834-1.678,1.645,1.645,0,0,1,1.655,1.1c.414.67,3.428,2.792,6.015,4.374l.506.309-.006.636c-.11,9.7-1.059,10.167-1.57,10.416a16.594,16.594,0,0,0-2.891,5.03,24.244,24.244,0,0,1-.728,4.061l-.177.7-.657.077a24.848,24.848,0,0,0-4.821.945c-.79,1.831-4.612,4.936-6.579,5.141a18.922,18.922,0,0,0-4.379,2.028,33.027,33.027,0,0,1-6.679,3.054,7.743,7.743,0,0,1-1.96.259,6.774,6.774,0,0,1-6.081-3.672,11.775,11.775,0,0,1-.577-2,4.426,4.426,0,0,0-.566-1.666c-.277-.266-1.023-.978-3.027-6.161-.616-1.6-4.888-8.853-5.719-9.531a14.149,14.149,0,0,1-3.559-6.474c-.035-.272-.065-.565-.1-.875a12.056,12.056,0,0,0-1.264-4.816,29.606,29.606,0,0,0-2.269-3.332,15.125,15.125,0,0,1-2.266-3.589,9.147,9.147,0,0,1-.333-2.125,5.079,5.079,0,0,0-.773-2.858.279.279,0,0,0-.254-.115c-.813,0-2.342,1.41-2.97,2.868,1.6,2.663,7.6,13.449,7.6,15.456,0,1.156,1.728,4.943,2.429,6.168.425.745,3.665,6.958,4,9.545.26,1.323,5.617,8.4,10.75,14.613.8-.016,2.582-.045,4.713-.045,12.627,0,13.407.917,13.826,1.409a1.365,1.365,0,0,1,.326.978,27.326,27.326,0,0,1-1.844,6.932c-.136.317-.495,2.185-.709,3.3a14.123,14.123,0,0,1-.752,3.173c-.046.085-.16.283-.323.561a57.272,57.272,0,0,0-3.755,7.3c-.886,2.665-4.45,6.388-6.443,6.763-1.291.729-8.2,8.983-14.333,16.771.424,2.786,1.125,8.31.306,9.882-.455.887.55,5.767,1.089,8.387.179.867.353,1.711.5,2.493.78,4.052.429,8.708-1.51,9.48-.682.382-3.457,4.069-4.948,6.051-.682.9-1.3,1.732-1.78,2.335a15.466,15.466,0,0,0-3.229,9.95c0,5.355-4.008,10.165-5.236,11.512-.894.982-1.983,5.332-2.2,6.906-.191,1.367-1.12,4.905-3.122,5.23a41.2,41.2,0,0,0-3.791,4.655c-3.766,4.992-5.692,7.351-7.073,7.426a3.439,3.439,0,0,0-1.942.626,31.091,31.091,0,0,1-3.5,1.7A13.607,13.607,0,0,1-846.124,401.339Zm-31.3-265.448a4.725,4.725,0,0,1,.677.729c.214.264.66.812.865.863a1.431,1.431,0,0,1,.921.758c.8,1.463.114,5.094-.1,5.914a1.119,1.119,0,0,0,.11.85,2.769,2.769,0,0,0,1.829,1.166,14.968,14.968,0,0,0,2.8.2c3.274,0,5.744-.523,6.24-1.028,1.175-1.2,3.71-1.428,6.657-1.587a15.216,15.216,0,0,0,1.549-.123,2.153,2.153,0,0,0,1.117-.864,3.641,3.641,0,0,1,.445-2.153,6.457,6.457,0,0,0,.422-1.234l.026-.263c.143-1.48.278-2.877,1.3-3.156a1.3,1.3,0,0,1,.349-.043,14.719,14.719,0,0,1,3.219.848,3.163,3.163,0,0,0,.636-1.505,1.684,1.684,0,0,1-.834-1.792,2.288,2.288,0,0,1,2.211-1.669,7.659,7.659,0,0,0,1.913-.722c-.252.009-.513.02-.782.033-2.372.113-6.633-.646-8.4-1.773a2.63,2.63,0,0,1-1.093-2.449c.033-1.711,1.081-4.247,1.971-4.761a10.58,10.58,0,0,0,3.169-3.732,15.346,15.346,0,0,0-4.18,1.693c-.119.124-.388.445-.627.732-1.659,1.982-3.411,3.955-5,4.391-.063.049-.13.272-.064.754a5.92,5.92,0,0,0,1.093,2.613,1.5,1.5,0,0,1,.857.609c.547.772.644,2.146.328,4.591-.26,1.984-4.565,6.42-5.383,6.645a3.536,3.536,0,0,0-2,2.479,2.112,2.112,0,0,1-2.078,1.56c-1.753,0-4.022-1.84-4.275-2.05l-.319-.265-.056-.436a16.1,16.1,0,0,0-.828-3.113,7.557,7.557,0,0,1-.548-3.362c0-.286.005-.612,0-1a12.437,12.437,0,0,0-1.25,1.5l-.379.535-.6-.15a8.842,8.842,0,0,0-1.8-.233Z" transform="translate(941.467 -88.305)" fill="#00afcc"/>
    </g>
    <g id="Group_7469" data-name="Group 7469" transform="translate(-955.15 307.103)">
      <path id="Path_40602" data-name="Path 40602" d="M-711.857,500.737h0c-1.006,0-1.88-.046-1.88-.046l-.283-.013-.233-.18c-2.5-1.937-2.749-2.445-2.775-2.885-.044-.122-.14-.348-.22-.536a13.225,13.225,0,0,1-1.053-3.357,14.409,14.409,0,0,1-.045-2.854c.018-.3.036-.576.036-.854a4.748,4.748,0,0,1,1.205-2.641,6.617,6.617,0,0,0,.572-.865c.112-.245.195-.481.285-.728a11.3,11.3,0,0,1,1.161-2.424c.4-.631.169-2.765.017-4.176a24.424,24.424,0,0,1-.189-2.458,5.109,5.109,0,0,1,1.162-3.862l.059-.074a10.2,10.2,0,0,1,3.654-2.716c.369-.1.711-.269.851-1.195a5.282,5.282,0,0,1,1.157-2.632l.209-.231,1.276-.276c.526-.115,1.13-.811,1.7-1.955a3.8,3.8,0,0,1,3.4-1.818,2.87,2.87,0,0,1,1.341.3c1.221.67,1,2.355.434,3.592l-.192.424-.128.038a12.342,12.342,0,0,0,1.367,3.3c.108.208.19.369.233.464.4.878.565,5.713-.024,6.844-.128.247-.226.43-.315.593-.178.328-.307.565-.588,1.189-.128.283-.271.635-.418,1a8.689,8.689,0,0,1-1.214,2.414,6.165,6.165,0,0,0-1.474,2.6c0,1.7-2.384,5.165-2.861,5.841a18.1,18.1,0,0,0-.812,3.106c-.429,2.048-.621,2.866-1.053,3.283a8.954,8.954,0,0,0-.166,1,4.327,4.327,0,0,1-.571,2.039C-708.611,500.483-709.276,500.737-711.857,500.737Z" transform="translate(718.395 -461.963)" fill="#00afcc"/>
    </g>
    <g id="Group_7470" data-name="Group 7470" transform="translate(-865.284 251.229)">
      <path id="Path_40603" data-name="Path 40603" d="M-574.973,380.983h0c-.9,0-1.266-.8-1.463-1.232a2.7,2.7,0,0,0-.217-.414,3.86,3.86,0,0,1-.411-2.3,8.179,8.179,0,0,0-.025-1.094c-.085-.691-.218-.9-.261-.928-.818-.448-.8-1.511-.791-2.636,0-.331.01-.678-.008-1a3.279,3.279,0,0,1,.694-2.195,1.849,1.849,0,0,0,.22-.374c.147-.639.672-1.4,2.347-1.4.234,0,.4.016.4.016,1.386.046,1.384,2.417,1.383,3.2,0,.213.244.441.588.74a2.837,2.837,0,0,1,.733.827c.048.083.244.336.386.521a5.363,5.363,0,0,1,1.39,2.711c.029.747-.231,2.955-1.325,3.453a4.133,4.133,0,0,0-1.21,1.07A2.721,2.721,0,0,1-574.973,380.983Z" transform="translate(578.159 -367.413)" fill="#00afcc"/>
    </g>
    <g id="Group_7471" data-name="Group 7471" transform="translate(-827.627 261.557)">
      <path id="Path_40604" data-name="Path 40604" d="M-495.678,418.391h0a22.722,22.722,0,0,1-3.576-.245c-1.412-.31-3.158-3.021-3.383-4.744-.126-.978-1.082-1.832-2.317-2.846-1.268-1.046-3.565-3.447-4.132-5.814a7.283,7.283,0,0,0-3.118-4.217c-1.728-.778-4.861-5.11-5.157-6.253a7.864,7.864,0,0,0-.492-.774,8.947,8.947,0,0,1-1.389-2.642,3.178,3.178,0,0,1,.354-2.727,6.957,6.957,0,0,0,.408-.848,1.812,1.812,0,0,1,1.678-1.386,3.435,3.435,0,0,1,.837.137,4.1,4.1,0,0,0,1.057.162l.248,0a3.15,3.15,0,0,1,3.31,2.486c.21.618,2.5,4.345,4.588,7.581,2.017,3.176,4.663,6.787,5.448,7.191a9.086,9.086,0,0,0,.973.052c1.186.026,2.811.061,3.283,1.74.313.919,3.954,4.445,5.184,5.347,1.587,1.159,1.95,4.928.989,6.512C-491.272,417.737-492.144,418.391-495.678,418.391Z" transform="translate(519.395 -385.894)" fill="#00afcc"/>
    </g>
    <g id="Group_7472" data-name="Group 7472" transform="translate(-793.527 258.895)">
      <path id="Path_40605" data-name="Path 40605" d="M-454.412,412.415h0a20.983,20.983,0,0,1-4.6-.47c-.31-.1-.672-.244-1.059-.4a9.973,9.973,0,0,0-2-.65c-1.816-.2-2.689-4.1-2.762-5.126a18.966,18.966,0,0,0-.831-4.025,12.819,12.819,0,0,1-.521-4.44,2.172,2.172,0,0,1,2.234-2.35,2.886,2.886,0,0,1,2.079.881,14.377,14.377,0,0,1,3.4-4.847,29.648,29.648,0,0,0,2.347-3.128c.964-1.372,2.054-2.928,3.123-4.279a5.182,5.182,0,0,1,4.128-2.217,4.7,4.7,0,0,1,2.015.45,10.41,10.41,0,0,0,2.5.708c1.526,0,2.243,2.133,2.372,2.561l.078.264-.048.274c-.445,2.5-.584,5.176-.3,5.724.676,1.3.125,3.175-.263,4.178a5.1,5.1,0,0,1-1.4,2.212,19.288,19.288,0,0,0-.184,3.822v.38a3.874,3.874,0,0,1-2.208,3.251,6.569,6.569,0,0,0-.9,1.726c-.2.674-.755,2.554-2.059,2.875-.444.108-1.325,1.087-1.8,1.613l-.244.27C-451.653,412.061-452.272,412.415-454.412,412.415Z" transform="translate(466.182 -381.369)" fill="#00afcc"/>
    </g>
    <g id="Group_7473" data-name="Group 7473" transform="translate(-769.831 226.797)">
      <path id="Path_40606" data-name="Path 40606" d="M-423.152,349.515c-.138,0-3.387-.017-3.91-1.464a3.134,3.134,0,0,0-.848-1.019c-.708-.39-1.607-1.736-1.189-3.845a110.127,110.127,0,0,0,.04-12.012,3.916,3.916,0,0,1,.538-2.866,1.545,1.545,0,0,1,1.228-.661,3.286,3.286,0,0,1,2.618,2.325,2.534,2.534,0,0,1,1.184,1.152,6.073,6.073,0,0,1,.131,3.777,40.3,40.3,0,0,0,.125,7.2,10.847,10.847,0,0,1,2.19,3.422c.138.609-.1,3.022-.9,3.681A1.777,1.777,0,0,1-423.152,349.515Z" transform="translate(429.205 -327.648)" fill="#00afcc"/>
    </g>
    <g id="Group_7474" data-name="Group 7474" transform="translate(-760.325 249.613)">
      <path id="Path_40607" data-name="Path 40607" d="M-407.313,379.2h0a2.633,2.633,0,0,1-.814-.116c-.308-.1-1.165-.271-1.994-.436-2.3-.457-3.137-.656-3.548-.94-.354-.243-1.092-.747-.445-4.955l.063-.406.293-.255a12.68,12.68,0,0,0,1.373-1.353,4.844,4.844,0,0,1,1.444-1.967c.156-.161.3-.313.426-.445a6.469,6.469,0,0,1,.533-.507c.4-.354.571-.513.636-.9a2.871,2.871,0,0,1,2.905-2.112,1.73,1.73,0,0,1,1.178.383c.306.268.882.772.354,4.831l-.089.678a9.945,9.945,0,0,0,.817,2.185c.789.639.613,2,.428,3.437-.029.219-.056.424-.072.593C-403.978,378.472-406,379.2-407.313,379.2Z" transform="translate(414.37 -364.806)" fill="#00afcc"/>
    </g>
    <g id="Group_7475" data-name="Group 7475" transform="translate(-757.964 159.781)">
      <path id="Path_40608" data-name="Path 40608" d="M-406.07,253.062a4.947,4.947,0,0,1-3.72-1.865c-.8-.877-.941-2.918-.886-3.767a2.07,2.07,0,0,1,.584-1.5,13.762,13.762,0,0,0,1.9-2.848c.566-1.646,4.088-2.383,6.138-2.676,1.317-.189,2.552-1.3,3.642-2.28a14.5,14.5,0,0,1,1.638-1.343c.531-.35.752-2.2.657-5.5-.011-.354-.019-.66-.019-.895,0-.611-.349-.925-1.082-1.36-.1-.059-.189-.111-.264-.161-.888-.585-.843-2.017-.795-3.531.009-.29.017-.569.017-.821a2.64,2.64,0,0,0-.42-1.679,7.322,7.322,0,0,1-1.194-3.195c0-1.221,1.8-2.167,3.353-2.167a4.486,4.486,0,0,1,1.061.128,5.874,5.874,0,0,0,1.4.149,14.721,14.721,0,0,0,1.667-.118,4.5,4.5,0,0,1,1.252-.035,1.289,1.289,0,0,1,.934.94,4.814,4.814,0,0,1-.9,3.69c-.265.332-.52,1.428-.369,3.418.05.659,1.724,2.2,2.413,2.553a2.388,2.388,0,0,1,1.079,1.779,4.395,4.395,0,0,1-.433,3.127,47.649,47.649,0,0,0-.33,7.791l.015,1.084h-.852a8.609,8.609,0,0,0-1.208,2.872c-.062.2-.111.354-.144.442-.525,1.444-3.586,1.893-4.641,1.893a12.058,12.058,0,0,0-3.393.494,14.326,14.326,0,0,1-3.229.611,3.354,3.354,0,0,0-.588,1.219C-402.776,250.374-403.908,253.062-406.07,253.062Z" transform="translate(410.686 -217.478)" fill="#00afcc"/>
    </g>
  </g>
  <g id="Group_7477" data-name="Group 7477" transform="translate(-61 -1155)">
    <circle id="Ellipse_175" data-name="Ellipse 175" cx="17" cy="17" r="17" transform="translate(537.751 1324)" fill="#fff"/>
    <circle id="Ellipse_174" data-name="Ellipse 174" cx="13" cy="13" r="13" transform="translate(541.751 1328)" fill="#ddfcfe"/>
    <circle id="Ellipse_173" data-name="Ellipse 173" cx="4" cy="4" r="4" transform="translate(550.751 1337)" fill="#041d4b"/>
    <g id="Group_5753" data-name="Group 5753" transform="translate(-695 -1086)">
      <path id="Rectangle_4018" data-name="Rectangle 4018" d="M0,0H149a8,8,0,0,1,8,8V21a8,8,0,0,1-8,8H8a8,8,0,0,1-8-8V0A0,0,0,0,1,0,0Z" transform="translate(1259 2436)" fill="#041d4b"/>
      <text id="Bangalore" transform="translate(1271.751 2456)" fill="#fff" font-size="18" font-family="proxima-nova" font-weight="700" letter-spacing="0.3em"><tspan x="0" y="0">Bangalore</tspan></text>
    </g>
  </g>
</svg>
