<svg id="Group_7574" data-name="Group 7574" xmlns="http://www.w3.org/2000/svg" width="120" height="120" viewBox="0 0 120 120">
  <g id="Group_7548" data-name="Group 7548">
    <path id="Path_40648" data-name="Path 40648" d="M60,120a60,60,0,1,1,60-60A60.068,60.068,0,0,1,60,120ZM60,4.8A55.2,55.2,0,1,0,115.2,60,55.263,55.263,0,0,0,60,4.8Z"/>
  </g>
  <g id="Group_7549" data-name="Group 7549" transform="translate(52.197 22.241)">
    <path id="Path_40649" data-name="Path 40649" d="M112.606,50.6v.782h-3.67v-.619l1.977-1.878a2.125,2.125,0,0,0,.448-.555,1.06,1.06,0,0,0,.121-.477.639.639,0,0,0-.235-.533,1.1,1.1,0,0,0-.69-.185,1.392,1.392,0,0,0-1.166.519l-.648-.5a1.894,1.894,0,0,1,.783-.6,2.712,2.712,0,0,1,1.109-.22,2.026,2.026,0,0,1,1.3.384,1.264,1.264,0,0,1,.483,1.045,1.738,1.738,0,0,1-.17.761,2.985,2.985,0,0,1-.655.811l-1.33,1.266Zm2.59.854a1.945,1.945,0,0,1-1.067-.3,2.068,2.068,0,0,1-.74-.882,3.26,3.26,0,0,1-.27-1.38,3.21,3.21,0,0,1,.27-1.373,2.012,2.012,0,0,1,.74-.882,2.015,2.015,0,0,1,2.134,0,1.994,1.994,0,0,1,.747.882,3.21,3.21,0,0,1,.27,1.373,3.26,3.26,0,0,1-.27,1.38,2.05,2.05,0,0,1-.747.882A1.945,1.945,0,0,1,115.2,51.458Zm0-.8a.968.968,0,0,0,.84-.441,2.923,2.923,0,0,0,0-2.632.969.969,0,0,0-.84-.441.98.98,0,0,0-.84.441,2.985,2.985,0,0,0,0,2.632A.979.979,0,0,0,115.2,50.654Zm6.281-.05v.782h-3.671v-.619l1.978-1.878a2.135,2.135,0,0,0,.448-.555,1.06,1.06,0,0,0,.121-.477.639.639,0,0,0-.235-.533,1.1,1.1,0,0,0-.69-.185,1.392,1.392,0,0,0-1.166.519l-.648-.5a1.892,1.892,0,0,1,.782-.6,2.715,2.715,0,0,1,1.11-.22,2.025,2.025,0,0,1,1.295.384,1.263,1.263,0,0,1,.484,1.045,1.738,1.738,0,0,1-.171.761,2.972,2.972,0,0,1-.654.811l-1.33,1.266Zm2.255-4.2v4.979h-.924v-4.2h-1.053v-.775Z" transform="translate(-108.743 -46.336)"/>
  </g>
  <g id="Group_7550" data-name="Group 7550" transform="translate(31.347 24.48)">
    <rect id="Rectangle_5863" data-name="Rectangle 5863" width="15.673" height="0.96"/>
  </g>
  <g id="Group_7551" data-name="Group 7551" transform="translate(72.98 24.48)">
    <rect id="Rectangle_5864" data-name="Rectangle 5864" width="15.673" height="0.96"/>
  </g>
  <g id="Group_7552" data-name="Group 7552" transform="translate(31.941 34.045)">
    <path id="Path_40650" data-name="Path 40650" d="M68.439,74.549a1.812,1.812,0,1,0-1.9-1.811A1.8,1.8,0,0,0,68.439,74.549Zm0-.574a1.237,1.237,0,1,1,1.237-1.237A1.2,1.2,0,0,1,68.439,73.976ZM74.1,71.527v-.548h-2.57V74.5h.654V73.151h1.7V72.6h-1.7V71.527Zm3.7,0v-.548H75.236V74.5h.654V73.151h1.7V72.6h-1.7V71.527ZM78.941,74.5h.654v-3.52h-.654Zm3.739.05a1.787,1.787,0,0,0,1.4-.588l-.422-.4a1.223,1.223,0,0,1-.94.417,1.237,1.237,0,1,1,0-2.474,1.236,1.236,0,0,1,.94.412l.422-.4a1.852,1.852,0,1,0-1.4,3.033Zm2.527-.05h.654v-3.52h-.654Zm4.744,0h.684l-1.589-3.52H88.4L86.818,74.5h.674l.347-.815H89.6ZM88.06,73.171l.659-1.539.664,1.539ZM91.586,74.5H94.08v-.553H92.239V70.978h-.654Zm9.259,0-.005-3.52H100.3l-1.373,2.334-1.4-2.334h-.538V74.5h.624V72.2l1.156,1.9h.292l1.157-1.931,0,2.333Zm2.108-.548V72.98h1.7v-.538h-1.7v-.915h1.916v-.548H102.3V74.5h2.64v-.548Zm7.07.548,0-3.52h-.538l-1.373,2.334-1.4-2.334h-.539V74.5h.624V72.2l1.156,1.9h.292l1.157-1.931,0,2.333Zm3.948-1.831a.844.844,0,0,0,.453-.774c0-.558-.453-.915-1.3-.915h-1.649V74.5h1.75c.905,0,1.378-.352,1.378-.955A.868.868,0,0,0,113.971,72.668Zm-.915-1.176c.453,0,.709.161.709.488s-.256.483-.709.483h-.925v-.971Zm.131,2.495H112.13V72.97h1.056c.493,0,.759.156.759.508S113.679,73.986,113.186,73.986Zm3.273-.036V72.98h1.7v-.538h-1.7v-.915h1.916v-.548H115.8V74.5h2.64v-.548Zm6.226.548-.809-1.157a1.125,1.125,0,0,0,.749-1.111c0-.78-.574-1.252-1.5-1.252h-1.448V74.5h.654V73.473h.794a1.165,1.165,0,0,0,.136-.005l.72,1.031Zm-.719-2.268c0,.443-.3.7-.87.7h-.765v-1.4h.765C121.669,71.532,121.965,71.788,121.965,72.231Z" transform="translate(-66.543 -70.928)"/>
  </g>
  <g id="Group_7553" data-name="Group 7553" transform="translate(40.192 76.363)">
    <path id="Path_40651" data-name="Path 40651" d="M86.161,164.7h-.652v-5.027H83.734v-.579h4.2v.579H86.161Z" transform="translate(-83.734 -159.09)"/>
  </g>
  <g id="Group_7554" data-name="Group 7554" transform="translate(44.638 77.69)">
    <path id="Path_40652" data-name="Path 40652" d="M95,166.21a1.938,1.938,0,0,1-1.473-.567A2.2,2.2,0,0,1,93,164.066a2.444,2.444,0,0,1,.5-1.614,1.668,1.668,0,0,1,1.346-.6,1.583,1.583,0,0,1,1.25.521,1.985,1.985,0,0,1,.46,1.369v.4H93.655a1.674,1.674,0,0,0,.372,1.124,1.3,1.3,0,0,0,1,.384,3.377,3.377,0,0,0,1.342-.284v.568a3.257,3.257,0,0,1-.64.207A3.445,3.445,0,0,1,95,166.21Zm-.172-3.823a1.045,1.045,0,0,0-.809.33,1.527,1.527,0,0,0-.353.913h2.2a1.391,1.391,0,0,0-.268-.921A.942.942,0,0,0,94.832,162.387Z" transform="translate(-92.995 -161.854)"/>
  </g>
  <g id="Group_7555" data-name="Group 7555" transform="translate(48.772 77.69)">
    <path id="Path_40653" data-name="Path 40653" d="M103.522,166.21a1.8,1.8,0,0,1-1.415-.56,2.322,2.322,0,0,1-.5-1.592,2.388,2.388,0,0,1,.506-1.63,1.835,1.835,0,0,1,1.449-.575,2.861,2.861,0,0,1,.606.065,2,2,0,0,1,.475.153l-.2.541a2.844,2.844,0,0,0-.46-.138,1.985,1.985,0,0,0-.441-.058q-1.28,0-1.281,1.633a1.956,1.956,0,0,0,.311,1.189,1.093,1.093,0,0,0,.928.414,2.833,2.833,0,0,0,1.077-.227v.564A2.3,2.3,0,0,1,103.522,166.21Z" transform="translate(-101.609 -161.854)"/>
  </g>
  <g id="Group_7556" data-name="Group 7556" transform="translate(52.474 76.003)">
    <path id="Path_40654" data-name="Path 40654" d="M112.2,164.305v-2.719a1.1,1.1,0,0,0-.234-.767.954.954,0,0,0-.732-.253,1.207,1.207,0,0,0-.97.36,1.834,1.834,0,0,0-.3,1.181v2.2h-.636v-5.966h.636v1.806a3.908,3.908,0,0,1-.031.541h.038a1.289,1.289,0,0,1,.533-.476,1.736,1.736,0,0,1,.794-.176,1.607,1.607,0,0,1,1.154.368,1.531,1.531,0,0,1,.387,1.162v2.742Z" transform="translate(-109.321 -158.339)"/>
  </g>
  <g id="Group_7557" data-name="Group 7557" transform="translate(57.023 77.69)">
    <path id="Path_40655" data-name="Path 40655" d="M121.674,166.133v-2.719a1.1,1.1,0,0,0-.234-.767.954.954,0,0,0-.732-.253,1.208,1.208,0,0,0-.966.357,1.8,1.8,0,0,0-.307,1.177v2.2H118.8v-4.2h.517l.1.575h.031a1.289,1.289,0,0,1,.548-.48,1.77,1.77,0,0,1,.786-.172,1.589,1.589,0,0,1,1.142.368,1.551,1.551,0,0,1,.384,1.169v2.742Z" transform="translate(-118.798 -161.854)"/>
  </g>
  <g id="Group_7558" data-name="Group 7558" transform="translate(61.338 77.69)">
    <path id="Path_40656" data-name="Path 40656" d="M131.649,164.028a2.327,2.327,0,0,1-.517,1.607,1.828,1.828,0,0,1-1.43.575,1.9,1.9,0,0,1-1-.264,1.748,1.748,0,0,1-.675-.759,2.647,2.647,0,0,1-.238-1.158,2.307,2.307,0,0,1,.514-1.6,1.814,1.814,0,0,1,1.427-.575,1.772,1.772,0,0,1,1.4.587A2.3,2.3,0,0,1,131.649,164.028Zm-3.2,0a1.993,1.993,0,0,0,.322,1.227,1.279,1.279,0,0,0,1.894,0,1.985,1.985,0,0,0,.326-1.231,1.934,1.934,0,0,0-.326-1.215,1.294,1.294,0,0,0-1.9-.008A1.974,1.974,0,0,0,128.447,164.028Z" transform="translate(-127.787 -161.854)"/>
  </g>
  <g id="Group_7559" data-name="Group 7559" transform="translate(66.044 76.003)">
    <path id="Path_40657" data-name="Path 40657" d="M138.228,164.305h-.636v-5.966h.636Z" transform="translate(-137.592 -158.339)"/>
  </g>
  <g id="Group_7560" data-name="Group 7560" transform="translate(67.522 77.69)">
    <path id="Path_40658" data-name="Path 40658" d="M144.532,164.028a2.327,2.327,0,0,1-.518,1.607,1.827,1.827,0,0,1-1.43.575,1.9,1.9,0,0,1-1-.264,1.745,1.745,0,0,1-.675-.759,2.641,2.641,0,0,1-.238-1.158,2.307,2.307,0,0,1,.514-1.6,1.813,1.813,0,0,1,1.426-.575,1.772,1.772,0,0,1,1.4.587A2.3,2.3,0,0,1,144.532,164.028Zm-3.2,0a2,2,0,0,0,.322,1.227,1.279,1.279,0,0,0,1.895,0,1.988,1.988,0,0,0,.326-1.231,1.937,1.937,0,0,0-.326-1.215,1.295,1.295,0,0,0-1.9-.008A1.974,1.974,0,0,0,141.33,164.028Z" transform="translate(-140.67 -161.854)"/>
  </g>
  <g id="Group_7561" data-name="Group 7561" transform="translate(71.702 77.69)">
    <path id="Path_40659" data-name="Path 40659" d="M153.345,161.931v.4l-.779.092a1.34,1.34,0,0,1,.192.353,1.326,1.326,0,0,1,.084.487,1.243,1.243,0,0,1-.422.985,1.7,1.7,0,0,1-1.158.368,1.956,1.956,0,0,1-.353-.031.626.626,0,0,0-.407.54.279.279,0,0,0,.142.257,1.056,1.056,0,0,0,.487.081h.744a1.659,1.659,0,0,1,1.047.288,1,1,0,0,1,.368.836,1.189,1.189,0,0,1-.56,1.062,2.984,2.984,0,0,1-1.633.368,2.241,2.241,0,0,1-1.273-.307.991.991,0,0,1-.445-.866.973.973,0,0,1,.246-.663,1.249,1.249,0,0,1,.69-.38.68.68,0,0,1-.273-.226.607.607,0,0,1-.107-.357.678.678,0,0,1,.122-.4,1.3,1.3,0,0,1,.387-.334,1.143,1.143,0,0,1-.533-.456,1.512,1.512,0,0,1,.211-1.8,1.685,1.685,0,0,1,1.174-.376,2.125,2.125,0,0,1,.594.077Zm-3.351,4.908a.569.569,0,0,0,.288.517,1.586,1.586,0,0,0,.824.177,2.279,2.279,0,0,0,1.185-.241.73.73,0,0,0,.387-.648.519.519,0,0,0-.211-.476,1.658,1.658,0,0,0-.793-.131h-.763a1,1,0,0,0-.675.207A.738.738,0,0,0,149.994,166.839Zm.345-3.562a.857.857,0,0,0,.249.667,1,1,0,0,0,.694.226.812.812,0,0,0,.932-.9.836.836,0,0,0-.943-.948.933.933,0,0,0-.69.242A.971.971,0,0,0,150.339,163.277Z" transform="translate(-149.38 -161.854)"/>
  </g>
  <g id="Group_7562" data-name="Group 7562" transform="translate(75.588 77.767)">
    <path id="Path_40660" data-name="Path 40660" d="M157.475,162.014h.683l.921,2.4a9.142,9.142,0,0,1,.375,1.185h.031c.034-.131.1-.353.207-.667s.455-1.288,1.043-2.914h.683l-1.806,4.785a2.356,2.356,0,0,1-.629,1,1.319,1.319,0,0,1-.878.3,2.577,2.577,0,0,1-.576-.065v-.51a2.22,2.22,0,0,0,.472.046.972.972,0,0,0,.936-.736l.234-.6Z" transform="translate(-157.475 -162.014)"/>
  </g>
  <g id="Group_7563" data-name="Group 7563" transform="translate(40.602 85.779)">
    <path id="Path_40661" data-name="Path 40661" d="M87.28,179.29a1.836,1.836,0,0,0-1.461.617,2.481,2.481,0,0,0-.533,1.683,2.545,2.545,0,0,0,.514,1.7,1.841,1.841,0,0,0,1.472.6,5.021,5.021,0,0,0,1.338-.211v.572a4.126,4.126,0,0,1-1.438.218,2.44,2.44,0,0,1-1.914-.752,3.1,3.1,0,0,1-.671-2.136,3.389,3.389,0,0,1,.322-1.518,2.344,2.344,0,0,1,.936-1,2.841,2.841,0,0,1,1.441-.353,3.478,3.478,0,0,1,1.542.322l-.276.56A2.975,2.975,0,0,0,87.28,179.29Z" transform="translate(-84.588 -178.707)"/>
  </g>
  <g id="Group_7564" data-name="Group 7564" transform="translate(45.243 87.187)">
    <path id="Path_40662" data-name="Path 40662" d="M98.119,183.813a2.327,2.327,0,0,1-.518,1.607,1.827,1.827,0,0,1-1.43.575,1.9,1.9,0,0,1-1-.264,1.751,1.751,0,0,1-.675-.759,2.647,2.647,0,0,1-.238-1.158,2.307,2.307,0,0,1,.514-1.6,1.813,1.813,0,0,1,1.426-.575,1.772,1.772,0,0,1,1.4.587A2.3,2.3,0,0,1,98.119,183.813Zm-3.2,0a2,2,0,0,0,.322,1.227,1.279,1.279,0,0,0,1.895,0,1.988,1.988,0,0,0,.326-1.231,1.937,1.937,0,0,0-.326-1.215,1.295,1.295,0,0,0-1.9-.008A1.974,1.974,0,0,0,94.917,183.813Z" transform="translate(-94.257 -181.639)"/>
  </g>
  <g id="Group_7565" data-name="Group 7565" transform="translate(49.904 87.264)">
    <path id="Path_40663" data-name="Path 40663" d="M104.61,181.8v2.726a1.1,1.1,0,0,0,.234.767.953.953,0,0,0,.732.253,1.19,1.19,0,0,0,.962-.36,1.811,1.811,0,0,0,.307-1.177V181.8h.636V186h-.525l-.092-.564h-.035a1.264,1.264,0,0,1-.544.475,1.811,1.811,0,0,1-.79.165,1.613,1.613,0,0,1-1.15-.364,1.554,1.554,0,0,1-.38-1.166V181.8Z" transform="translate(-103.966 -181.799)"/>
  </g>
  <g id="Group_7566" data-name="Group 7566" transform="translate(54.499 87.187)">
    <path id="Path_40664" data-name="Path 40664" d="M116.415,185.918V183.2a1.1,1.1,0,0,0-.234-.767.954.954,0,0,0-.732-.253,1.208,1.208,0,0,0-.966.357,1.8,1.8,0,0,0-.307,1.177v2.2h-.636v-4.2h.517l.1.575h.031a1.288,1.288,0,0,1,.548-.48,1.769,1.769,0,0,1,.786-.172,1.589,1.589,0,0,1,1.142.368,1.551,1.551,0,0,1,.384,1.169v2.742Z" transform="translate(-113.539 -181.639)"/>
  </g>
  <g id="Group_7567" data-name="Group 7567" transform="translate(58.813 87.187)">
    <path id="Path_40665" data-name="Path 40665" d="M124.442,186a1.8,1.8,0,0,1-1.415-.56,2.325,2.325,0,0,1-.5-1.592,2.389,2.389,0,0,1,.506-1.63,1.835,1.835,0,0,1,1.45-.575,2.861,2.861,0,0,1,.606.065,1.987,1.987,0,0,1,.475.153l-.2.541a2.83,2.83,0,0,0-.46-.138,1.985,1.985,0,0,0-.441-.058q-1.281,0-1.281,1.633a1.953,1.953,0,0,0,.311,1.189,1.092,1.092,0,0,0,.928.414,2.836,2.836,0,0,0,1.078-.227v.564A2.3,2.3,0,0,1,124.442,186Z" transform="translate(-122.528 -181.639)"/>
  </g>
  <g id="Group_7568" data-name="Group 7568" transform="translate(62.461 85.703)">
    <path id="Path_40666" data-name="Path 40666" d="M130.818,184.31h-.636v-4.2h.636Zm-.69-5.341a.416.416,0,0,1,.108-.318.394.394,0,0,1,.533,0,.414.414,0,0,1,.111.318.427.427,0,0,1-.111.322.394.394,0,0,1-.533,0A.438.438,0,0,1,130.128,178.969Z" transform="translate(-130.128 -178.547)"/>
  </g>
  <g id="Group_7569" data-name="Group 7569" transform="translate(64.226 85.5)">
    <path id="Path_40667" data-name="Path 40667" d="M134.442,184.09H133.8v-5.966h.637Z" transform="translate(-133.805 -178.124)"/>
  </g>
  <g id="Group_7570" data-name="Group 7570" transform="translate(31.174 74.499)">
    <path id="Path_40668" data-name="Path 40668" d="M64.946,155.207h.731v18.811h-.731Z" transform="translate(-64.946 -155.207)"/>
  </g>
  <g id="Group_7571" data-name="Group 7571" transform="translate(28.8 51.36)">
    <path id="Path_40669" data-name="Path 40669" d="M99.36,111.7a5.627,5.627,0,0,0-2.678.689c0-2.456.042-4.567.085-5.385l-4.973.991v.474l.468.043c.68.086.978.517,1.02,1.422.17,1.81.128,11.416,0,12.967a19.094,19.094,0,0,0,4.208.517c3.953,0,6.291-2.456,6.291-6.376C103.866,113.936,101.911,111.7,99.36,111.7Zm-1.743,10.942a4.709,4.709,0,0,1-.85-.086c-.085-1.077-.128-5.514-.128-9.434a2.861,2.861,0,0,1,1.148-.172c1.615,0,2.55,1.9,2.55,4.308C100.38,120.312,99.233,122.638,97.618,122.638ZM73.134,111.825l-.765.216c-.68-2.283-1.743-3.576-3.741-3.576H66.036c-.128,1.464-.17,3.877-.17,6.419l1.743-.043c1.148-.043,1.615-.9,1.913-2.2h.637v5.342h-.637c-.3-1.292-.765-2.154-1.913-2.2l-1.743-.043c0,1.939.085,3.533.128,4.524.128,1.422.51,2.068,1.488,2.2l.893.086v.646H60v-.646l.68-.086c.978-.129,1.36-.775,1.488-2.2a77.633,77.633,0,0,0,0-9.951c-.127-1.422-.51-2.068-1.488-2.2l-.68-.086v-.646H73.049Zm4.165-.258c3.7,0,5.568,2.542,5.568,5.9,0,3.274-2.083,5.945-5.781,5.945s-5.568-2.542-5.568-5.9C71.519,114.237,73.6,111.567,77.3,111.567Zm-.17.732c-1.658,0-2.083,2.24-2.083,5.213,0,2.886.722,5.213,2.253,5.213,1.658,0,2.083-2.24,2.083-5.213C79.382,114.625,78.66,112.3,77.13,112.3Zm27.629,5.3c0-3.1,1.913-6.031,5.738-6.031,3.1,0,4.59,2.326,4.59,5.385h-6.928c-.085,2.757,1.318,4.825,3.953,4.825a3.82,3.82,0,0,0,2.508-.818l.34.388a5.75,5.75,0,0,1-10.2-3.748Zm3.443-1.422,3.485-.086c0-1.551-.213-3.791-1.488-3.791C108.967,112.3,108.244,114.41,108.2,116.176Zm15.854-1.12-.552.13c-.6-1.982-1.53-2.844-2.848-2.844a1.544,1.544,0,0,0-1.53,1.68c0,.991.722,1.508,2.806,2.327,1.955.775,2.72,1.637,2.72,3.231,0,2.369-1.785,3.834-4.761,3.834a11.374,11.374,0,0,1-3.911-.689l-.085-3.274.552-.129c.808,2.283,1.87,3.144,3.273,3.144a1.73,1.73,0,0,0,1.828-1.766c0-.9-.51-1.422-2.38-2.111-1.743-.646-3.018-1.422-3.018-3.4,0-1.939,1.7-3.576,4.463-3.576a8.528,8.528,0,0,1,3.358.6Zm-32.729-.086c-1.488-1.034-3.1-.56-3.443,0a47.519,47.519,0,0,0,.043,6.074c.085.948.34,1.335,1.02,1.421l.893.043v.646H82.953v-.6l.468-.043c.68-.086.978-.517,1.02-1.422a47.964,47.964,0,0,0,0-6.548c-.085-.948-.34-1.335-1.02-1.464l-.468-.043v-.474l4.931-.991-.042,2.628c1.148-2.714,3.443-3.059,4.675-2.283Z" transform="translate(-60 -107)"/>
  </g>
</svg>
