<svg class="bubble-shape" xmlns="http://www.w3.org/2000/svg" width="532.009" height="390.564" viewBox="0 0 532.009 390.564">
  <path id="Path_39731" data-name="Path 39731" d="M788.962,70.472C788.5-90.508,493.075-106.2,368.571-64.227s-174.809,214.819,9.082,330S789.427,231.453,788.962,70.472Z" transform="translate(-256.954 84.068)" fill="#00afcc"/>
</svg>
