<svg class="m-bubble" xmlns="http://www.w3.org/2000/svg" viewBox="0 0 328 143.328">
  <path id="Subtraction_117" data-name="Subtraction 117" d="M91.035.167H-218.55c-32.285-47.819,9.191-80.541,56.281-84.092,21.175-2.4,40.594,10.474,61.01,11.156,17.168-.112,32.747-10.742,41.923-24.819,6.636-9.591,11.723-20.2,19.737-28.786,21.045-23.206,57.722-20.221,82.115-3.984C84.164-103.981,111.556-47.371,91.032.167Z" transform="translate(230 143.16)" fill="currentColor"/>
</svg>
