<svg class="calendar-line" xmlns="http://www.w3.org/2000/svg" width="182" height="293.668">
  <g id="Group_7629" data-name="Group 7629" transform="translate(-842 -12173)">
    <path id="Line_477-2" data-name="Line 477-2" d="M-624.183-574.346c0,144.334-176,144.334-176,288.668" transform="translate(1643.183 12752.346)" fill="none" stroke="#ced9dd" stroke-width="2"/>
    <circle id="Ellipse_274" data-name="Ellipse 274" cx="5" cy="5" r="5" transform="translate(1014 12173)" fill="#d7e0e4"/>
  </g>
</svg>
