<svg class="calendar-line-full" xmlns="http://www.w3.org/2000/svg" width="178" height="2020.676" viewBox="0 0 178 2020.676">
  <path id="Line_477-2-7" data-name="Line 477-2-7" d="M2202.2-318.047c0,144.334-176,144.334-176,288.668s176,144.333,176,288.668-176,144.334-176,288.668,176,144.333,176,288.668-176,144.334-176,288.668,176,144.333,176,288.668-176,144.334-176,288.668" transform="translate(-2025.195 318.047)" fill="none" stroke="#00aeca" stroke-width="2"/>
</svg>
