<svg class="u-corner" xmlns="http://www.w3.org/2000/svg" width="193.177" height="193.177" viewBox="0 0 193.177 193.177">
  <g id="Group_7582" data-name="Group 7582" transform="translate(-775.323 -158.323)">
    <path id="Path_40679" data-name="Path 40679" d="M775.323,351.5H968.5V158.323C961.462,261.781,878.781,344.462,775.323,351.5Z" fill="#fff"/>
  </g>
</svg>
