<svg class="info-wave" xmlns="http://www.w3.org/2000/svg" width="911.736" height="494.92" viewBox="0 0 911.736 494.92">
  <path id="Path_38996" data-name="Path 38996" d="M908.547-467.236c31.647,2.763,102.171,4.108,172.219,10.54,110.9,10.184,217.526,56.026,143.816,113.343s-2.7,107.6,124.638,73.649,265.762-92.1,366.1-20.452c55.72,48.6-10.543,94.933-37.222,107.531s-13.4,35.093,10.417,50.95,86.858,4.348,114.279,28.686,26.735,80.284-32.067,96.6c-57.589,8.38-105.051-40.935-161.776-42.547-63.952-4.89-119.311,35.074-178.423,56.92-107.791,42.865-219.532,9.578-314.845-40.6-64.354-23.9-137.277-20.054-207.131-16.942Z" transform="translate(-908.547 467.236)" fill="#e4f8f9" opacity="0.549"/>
</svg>
