<svg xmlns="http://www.w3.org/2000/svg" width="110" height="110" viewBox="0 0 110 110">
  <g id="Group_7921" data-name="Group 7921" transform="translate(-953 -781)">
    <g id="Ellipse_492" data-name="Ellipse 492" transform="translate(953 781)" stroke="#707070" stroke-width="1">
      <circle cx="55" cy="55" r="55" stroke="none"/>
      <circle cx="55" cy="55" r="54.5" fill="none"/>
    </g>
    <path id="Path_13" data-name="Path 13" d="M-137.481,50.625l6.71-8.925,8.54,11.644-10.4,9.1Zm52.94,2.719L-76.024,41.7l6.719,8.925-4.852,11.821Zm-26.471-13.038h15.265l-4.77,11.24h-5.757Zm-15.568,0h11.008l4.738,11.24-7.5,0Zm35.389,0h10.974l-8.241,11.242h-7.5Zm-6.855-27.8,17.77,23.552h-10.73Zm-10.68-.039-7.022,23.59h-10.764Zm5.331-3.225,8.015,26.815h-15.99Zm0-10.839-38.89,51.584,7.995,19.483,15.684-13.679h30.421L-72.517,69.47l8-19.481Z" transform="translate(1111.371 798.465)" fill="#fff"/>
  </g>
</svg>
