<svg xmlns="http://www.w3.org/2000/svg" width="132.157" height="107.731" viewBox="0 0 132.157 107.731">
  <path id="Path_37860" data-name="Path 37860" d="M180.066,79.165c12,12.9,27.25,6.545,46.292-.5,39.487-14.626,89.1-45.34,60.675-73.439C221.152-64.217,123.925,18.808,180.066,79.165Z" transform="translate(-163.277 21.127)" fill="#fbe481"/>
</svg>
