<svg class="u-pin" xmlns="http://www.w3.org/2000/svg" width="20" height="25" viewBox="0 0 20 25">
  <path id="Path_40265" data-name="Path 40265" d="M889.615,290.21a8.908,8.908,0,0,0-1.014-.873,4.087,4.087,0,0,0-.984-1.134c-1.825-1.424-4.8-1.819-7.326-1.463a10.466,10.466,0,0,0-7.816,5.029.645.645,0,0,0-.236.256c-3.017,7.54,2.907,14.1,8.142,19.469.422.434,2.187-.4,1.853-.738l-.033-.033c2.824-3.232,5.629-6.512,7.48-10.164C891.412,297.138,892.554,293.174,889.615,290.21Zm-7.736,8.292a2.941,2.941,0,0,1-3.834-1.322,2.648,2.648,0,0,1-.26-.907,4.386,4.386,0,0,1,.627-2.4,1.356,1.356,0,0,0,.855-.561A2.83,2.83,0,0,1,883,292.194a2.7,2.7,0,0,1,1.221,1.219c.6,1.515-.55,4.236-2.345,5.087Z" transform="translate(-871.422 -286.617)" fill="#00afcc"/>
</svg>
