<svg xmlns="http://www.w3.org/2000/svg" viewBox="0 0 99.044 102.526">
  <g id="Group_6161" data-name="Group 6161" transform="translate(1.649 1.596)">
    <path id="Path_1409" data-name="Path 1409" d="M11.194,32.544c57.043,11.193,86.54-74.793,30.932-95.2-61.739-22.653-96.166,82.4-30.932,95.2" transform="translate(23.969 65.844)" fill="none" stroke="#04224b" stroke-width="3"/>
  </g>
</svg>
