<svg class="q-wave-edge" fill="currentColor" xmlns="http://www.w3.org/2000/svg" viewBox="0 0 1920 160">
  <path id="Union_140" data-name="Union 140" d="M0,0V72.387s119.427,6.508,266.385,0S460.111,34.466,601.043,30.04c69.043-2.166,121.578,14.753,175.834,31.673,56.491,17.616,114.847,35.233,195.651,31.305,158.411-7.7,278.325-69.3,402.845-20.632s183.1,98.291,311.861,85.6S1920,93.019,1920,93.019V0Z" transform="translate(1920 160) rotate(180)"/>
</svg>
