<svg xmlns="http://www.w3.org/2000/svg" width="48" height="48" viewBox="0 0 48 48">
  <g id="Group_7147" data-name="Group 7147" transform="translate(-6028.517 967.083)">
    <g id="Group_3476" data-name="Group 3476" transform="translate(6028.517 -967.083)">
      <g id="Group_3474" data-name="Group 3474" transform="translate(0)">
        <circle id="Ellipse_71" data-name="Ellipse 71" cx="24" cy="24" r="24"/>
      </g>
      <g id="Group_3475" data-name="Group 3475" transform="translate(16.959 9.828)">
        <path id="Path_24887" data-name="Path 24887" d="M326.9,1109.1c-.393.011-.422.39-.422.59q0,5.4,0,10.8c0,.631-.012,1.449-.618,1.449-1.955,0-1.031.031-3.715.031-.637,0-.713.015-.713-.62q0-5.869,0-11.738c0-.589-.011-.6-.586-.6-.973,0-1.4,0-2.375,0-.682,0-.627-.063-.649-.636-.033-.839-.033-3.195-.033-3.882,0-.267.086-.354.352-.35.937.012,1.875-.009,2.812.012.333.007.443-.083.439-.428-.015-1.331-.04-2.664.013-3.993a5.814,5.814,0,0,1,4.8-5.815,13.969,13.969,0,0,1,3.769-.2c.529.016,1,.074,1.584.116.244.017.291.114.285.327-.034,1.331-.064,2.661-.083,3.992,0,.264-.122.307-.352.307-1.113,0-2.227-.089-3.339.022a1.411,1.411,0,0,0-1.454,1.45c-.118,1.314-.023,2.634-.054,3.95-.007.316.2.26.386.26q2.2,0,4.4,0c.524,0,.552,0,.5.536-.136,1.371-.375,2.694-.6,3.934-.079.437-.224.466-.586.468C329.086,1109.1,328.4,1109.1,326.9,1109.1Z" transform="translate(-317.785 -1093.693)" fill="#fff"/>
      </g>
    </g>
  </g>
</svg>
