<?xml version="1.0" standalone="no"?>
<!DOCTYPE svg PUBLIC "-//W3C//DTD SVG 20010904//EN"
 "http://www.w3.org/TR/2001/REC-SVG-20010904/DTD/svg10.dtd">
<svg version="1.0" xmlns="http://www.w3.org/2000/svg"
 width="310.000000pt" height="310.000000pt" viewBox="0 0 310.000000 310.000000"
 preserveAspectRatio="xMidYMid meet">
<metadata>
Created by potrace 1.14, written by Peter Selinger 2001-2017
</metadata>
<g transform="translate(0.000000,310.000000) scale(0.100000,-0.100000)"
fill="#000000" stroke="none">
<path d="M0 1550 l0 -1550 1550 0 1550 0 0 1550 0 1550 -1550 0 -1550 0 0
-1550z m1118 1008 c9 -9 12 -104 12 -365 l0 -353 420 0 420 0 0 353 c0 261 3
356 12 365 8 8 51 12 128 12 77 0 120 -4 128 -12 9 -9 12 -230 12 -935 0 -902
0 -923 -19 -933 -11 -5 -67 -10 -125 -10 -82 0 -108 3 -120 16 -14 14 -16 68
-16 445 l0 429 -420 0 -420 0 0 -429 c0 -377 -2 -431 -16 -445 -12 -13 -38
-16 -120 -16 -58 0 -114 5 -125 10 -19 10 -19 31 -19 933 0 705 3 926 12 935
8 8 51 12 128 12 77 0 120 -4 128 -12z"/>
</g>
</svg>
